<?xml version="1.0" encoding="UTF-8" standalone="no"?>
<svg width="46px" height="46px" viewBox="0 0 46 46" version="1.1" xmlns="http://www.w3.org/2000/svg" xmlns:xlink="http://www.w3.org/1999/xlink" xmlns:sketch="http://www.bohemiancoding.com/sketch/ns">
    <!-- Generator: Sketch 3.2.2 (9983) - http://www.bohemiancoding.com/sketch -->
    <title>Imported Layers</title>
    <desc>Created with Sketch.</desc>
    <defs></defs>
    <g id="Nueva-incidencia" stroke="none" stroke-width="1" fill="none" fill-rule="evenodd" sketch:type="MSPage">
        <g id="editar-incidencia-/-localizar-dirección" sketch:type="MSArtboardGroup" transform="translate(-624.000000, -936.000000)" fill="#C2D8CA">
            <g id="calle" sketch:type="MSLayerGroup" transform="translate(44.000000, 912.000000)">
                <path d="M602.999045,24 C590.342045,24 580.024045,34.298 580.000045,46.956 C579.988045,53.1 582.369045,58.88 586.705045,63.232 C591.040045,67.585 596.812045,69.988 602.956045,70 L603.001045,70 C615.658045,70 625.976045,59.702 626.000045,47.044 C626.024045,34.362 615.727045,24.025 602.999045,24 L602.999045,24 Z M603.001045,69 L603.001045,68.999 L603.001045,69 L603.001045,69 Z M612.176045,54.797 C612.566045,55.188 612.565045,55.821 612.173045,56.211 C611.978045,56.406 611.723045,56.503 611.468045,56.503 C611.211045,56.503 610.955045,56.405 610.759045,56.209 L602.996045,48.415 L595.203045,56.178 C595.008045,56.373 594.753045,56.47 594.498045,56.47 C594.241045,56.47 593.984045,56.372 593.789045,56.176 C593.399045,55.784 593.400045,55.151 593.792045,54.762 L601.585045,46.999 L593.821045,39.205 C593.432045,38.814 593.433045,38.181 593.824045,37.791 C594.214045,37.399 594.848045,37.401 595.238045,37.793 L603.002045,45.587 L610.795045,37.824 C611.185045,37.434 611.819045,37.434 612.209045,37.826 C612.599045,38.218 612.598045,38.851 612.206045,39.24 L604.413045,47.004 L612.176045,54.797 L612.176045,54.797 Z" id="Imported-Layers" sketch:type="MSShapeGroup"></path>
            </g>
        </g>
    </g>
</svg>