<?xml version="1.0" encoding="UTF-8" standalone="no"?>
<svg width="28px" height="19px" viewBox="0 0 28 19" version="1.1" xmlns="http://www.w3.org/2000/svg" xmlns:xlink="http://www.w3.org/1999/xlink" xmlns:sketch="http://www.bohemiancoding.com/sketch/ns">
    <!-- Generator: Sketch 3.3.2 (12043) - http://www.bohemiancoding.com/sketch -->
    <title>Imported Layers</title>
    <desc>Created with Sketch.</desc>
    <defs></defs>
    <g id="Login---home---listado-incidencias---Ajustes" stroke="none" stroke-width="1" fill="none" fill-rule="evenodd" sketch:type="MSPage">
        <g id="Notificaciones" sketch:type="MSArtboardGroup" transform="translate(-361.000000, -958.000000)" fill="#FCFCFC">
            <g id="Pantalla-listado-incidencias" sketch:type="MSLayerGroup" transform="translate(0.000000, -3.000000)">
                <g id="idioma-abierto" transform="translate(0.000000, 941.000000)" sketch:type="MSShapeGroup">
                    <path d="M361.419333,20.18701 C361.594333,20.06201 361.797333,20.00101 361.999333,20.00101 C362.311333,20.00101 362.618333,20.14701 362.813333,20.42001 L374.143333,36.28101 L386.634333,20.38301 C386.975333,19.94901 387.603333,19.87101 388.039333,20.21501 C388.472333,20.55601 388.548333,21.18501 388.207333,21.61901 L374.891333,38.56601 C374.697333,38.81401 374.385333,38.94101 374.082333,38.94801 C373.767333,38.94101 373.474333,38.78601 373.292333,38.52901 L361.186333,21.58201 C360.865333,21.13301 360.969333,20.50801 361.419333,20.18701" id="Imported-Layers"></path>
                </g>
            </g>
        </g>
    </g>
</svg>