<?xml version="1.0" encoding="UTF-8" standalone="no"?>
<svg width="60px" height="60px" viewBox="0 0 60 60" version="1.1" xmlns="http://www.w3.org/2000/svg" xmlns:xlink="http://www.w3.org/1999/xlink" xmlns:sketch="http://www.bohemiancoding.com/sketch/ns">
    <!-- Generator: Sketch 3.3 (11970) - http://www.bohemiancoding.com/sketch -->
    <title>Imported Layers</title>
    <desc>Created with Sketch.</desc>
    <defs></defs>
    <g id="Filtrado" stroke="none" stroke-width="1" fill="none" fill-rule="evenodd" sketch:type="MSPage">
        <g id="Filtrado-1" sketch:type="MSArtboardGroup" transform="translate(-338.000000, -867.000000)" fill="#1D4A7B">
            <g id="tooltip" sketch:type="MSLayerGroup" transform="translate(299.000000, 824.000000)">
                <g id="Imported-Layers" transform="translate(39.000000, 43.000000)" sketch:type="MSShapeGroup">
                    <path d="M33.3333333,53.3333333 L26.6666667,53.3333333 C26.0522222,53.3333333 25.5555556,53.8311111 25.5555556,54.4444444 C25.5555556,55.0577778 26.0522222,55.5555556 26.6666667,55.5555556 L33.3333333,55.5555556 C33.9477778,55.5555556 34.4444444,55.0577778 34.4444444,54.4444444 C34.4444444,53.8311111 33.9477778,53.3333333 33.3333333,53.3333333" id="Fill-1"></path>
                    <path d="M31.1111111,57.7777778 L28.8888889,57.7777778 C28.2744444,57.7777778 27.7777778,58.2755556 27.7777778,58.8888889 C27.7777778,59.5022222 28.2744444,60 28.8888889,60 L31.1111111,60 C31.7255556,60 32.2222222,59.5022222 32.2222222,58.8888889 C32.2222222,58.2755556 31.7255556,57.7777778 31.1111111,57.7777778" id="Fill-2"></path>
                    <path d="M30,10 C19.5844444,10 11.1111111,18.4733333 11.1111111,28.8888889 C11.1111111,37.2066667 16.5511111,44.5022222 24.4444444,46.9244444 L24.4444444,50 C24.4444444,50.6133333 24.9411111,51.1111111 25.5555556,51.1111111 L34.4444444,51.1111111 C35.0588889,51.1111111 35.5555556,50.6133333 35.5555556,50 L35.5555556,46.9244444 C43.4488889,44.5022222 48.8888889,37.2055556 48.8888889,28.8888889 C48.8888889,18.4733333 40.4155556,10 30,10" id="Fill-3"></path>
                    <path d="M5.55555556,26.6666667 L1.11111111,26.6666667 C0.496666667,26.6666667 0,27.1644444 0,27.7777778 C0,28.3911111 0.496666667,28.8888889 1.11111111,28.8888889 L5.55555556,28.8888889 C6.17,28.8888889 6.66666667,28.3911111 6.66666667,27.7777778 C6.66666667,27.1644444 6.17,26.6666667 5.55555556,26.6666667" id="Fill-4"></path>
                    <path d="M13.3333333,14.4444444 C13.6177778,14.4444444 13.9022222,14.3355556 14.1188889,14.1188889 C14.5533333,13.6844444 14.5533333,12.9822222 14.1188889,12.5477778 L8.56333333,6.99222222 C8.12888889,6.55777778 7.42555556,6.55777778 6.99222222,6.99222222 C6.55888889,7.42666667 6.55888889,8.12888889 6.99222222,8.56333333 L12.5477778,14.1188889 C12.7644444,14.3355556 13.0488889,14.4444444 13.3333333,14.4444444" id="Fill-5"></path>
                    <path d="M30,6.66666667 C30.6144444,6.66666667 31.1111111,6.16888889 31.1111111,5.55555556 L31.1111111,1.11111111 C31.1111111,0.497777778 30.6144444,0 30,0 C29.3855556,0 28.8888889,0.497777778 28.8888889,1.11111111 L28.8888889,5.55555556 C28.8888889,6.16888889 29.3855556,6.66666667 30,6.66666667" id="Fill-6"></path>
                    <path d="M53.0077778,6.99222222 C52.5744444,6.55777778 51.8711111,6.55777778 51.4366667,6.99222222 L45.8811111,12.5477778 C45.4466667,12.9822222 45.4466667,13.6844444 45.8811111,14.1188889 C46.0977778,14.3355556 46.3822222,14.4444444 46.6666667,14.4444444 C46.9511111,14.4444444 47.2355556,14.3355556 47.4522222,14.1188889 L53.0077778,8.56333333 C53.4422222,8.12888889 53.4422222,7.42666667 53.0077778,6.99222222" id="Fill-7"></path>
                    <path d="M58.8888889,26.6666667 L54.4444444,26.6666667 C53.83,26.6666667 53.3333333,27.1644444 53.3333333,27.7777778 C53.3333333,28.3911111 53.83,28.8888889 54.4444444,28.8888889 L58.8888889,28.8888889 C59.5033333,28.8888889 60,28.3911111 60,27.7777778 C60,27.1644444 59.5033333,26.6666667 58.8888889,26.6666667" id="Fill-8"></path>
                </g>
            </g>
        </g>
    </g>
</svg>