<?xml version="1.0" encoding="UTF-8" standalone="no"?>
<svg width="144px" height="144px" viewBox="0 0 144 144" version="1.1" xmlns="http://www.w3.org/2000/svg" xmlns:xlink="http://www.w3.org/1999/xlink" xmlns:sketch="http://www.bohemiancoding.com/sketch/ns">
    <!-- Generator: Sketch 3.3 (11970) - http://www.bohemiancoding.com/sketch -->
    <title>icono interrogacion</title>
    <desc>Created with Sketch.</desc>
    <defs>
        <radialGradient cx="50%" cy="50%" fx="50%" fy="50%" r="50%" id="radialGradient-1">
            <stop stop-color="#FFFFFF" stop-opacity="0.5" offset="0%"></stop>
            <stop stop-color="#000000" stop-opacity="0.260869565" offset="100%"></stop>
        </radialGradient>
        <path id="path-2" d="M72,144 C111.764502,144 144,111.764502 144,72 C144,32.235498 111.764502,0 72,0 C32.235498,0 0,32.235498 0,72 C0,111.764502 32.235498,144 72,144 Z"></path>
    </defs>
    <g id="Nueva-incidencia" stroke="none" stroke-width="1" fill="none" fill-rule="evenodd" sketch:type="MSPage">
        <g id="editar-incidencia-/-localizar-mapa" sketch:type="MSArtboardGroup" transform="translate(-554.000000, -819.000000)">
            <g id="icono-interrogacion" sketch:type="MSLayerGroup" transform="translate(554.000000, 819.000000)">
                <g id="Oval-2">
                    <use fill="#163960" sketch:type="MSShapeGroup" xlink:href="#path-2"></use>
                    <use fill-opacity="0.5" fill="url(#radialGradient-1)" xlink:href="#path-2"></use>
                </g>
                <path d="M72,107 C68.998,107 66.5714286,104.593077 66.5714286,101.615385 C66.5714286,98.6430769 68.998,96.2307692 72,96.2307692 C74.9938571,96.2307692 77.4285714,98.6430769 77.4285714,101.615385 C77.4285714,104.593077 74.9938571,107 72,107 L72,107 Z M74.7142857,74.5011538 L74.7142857,88.1538462 C74.7142857,89.6426923 73.4982857,90.8461538 72,90.8461538 C70.5017143,90.8461538 69.2857143,89.6426923 69.2857143,88.1538462 L69.2857143,72 C69.2857143,70.5111538 70.5017143,69.3076923 72,69.3076923 C79.4832857,69.3076923 85.5714286,63.2688462 85.5714286,55.8461538 C85.5714286,48.4234615 79.4832857,42.3846154 72,42.3846154 C64.5167143,42.3846154 58.4285714,48.4234615 58.4285714,55.8461538 C58.4285714,57.335 57.2125714,58.5384615 55.7142857,58.5384615 C54.216,58.5384615 53,57.335 53,55.8461538 C53,45.4565385 61.5228571,37 72,37 C82.4771429,37 91,45.4565385 91,55.8461538 C91,65.3230769 83.9102857,73.1926923 74.7142857,74.5011538 L74.7142857,74.5011538 Z" id="Imported-Layers" fill="#FCFCFC" sketch:type="MSShapeGroup"></path>
            </g>
        </g>
    </g>
</svg>