<?xml version="1.0" encoding="UTF-8" standalone="no"?>
<svg width="144px" height="144px" viewBox="0 0 144 144" version="1.1" xmlns="http://www.w3.org/2000/svg" xmlns:xlink="http://www.w3.org/1999/xlink" xmlns:sketch="http://www.bohemiancoding.com/sketch/ns">
    <!-- Generator: Sketch 3.3 (11970) - http://www.bohemiancoding.com/sketch -->
    <title>icono conexion</title>
    <desc>Created with Sketch.</desc>
    <defs>
        <radialGradient cx="50%" cy="50%" fx="50%" fy="50%" r="50%" id="radialGradient-1">
            <stop stop-color="#FFFFFF" stop-opacity="0.5" offset="0%"></stop>
            <stop stop-color="#000000" stop-opacity="0.260869565" offset="100%"></stop>
        </radialGradient>
        <path id="path-2" d="M72,144 C111.764502,144 144,111.764502 144,72 C144,32.235498 111.764502,0 72,0 C32.235498,0 0,32.235498 0,72 C0,111.764502 32.235498,144 72,144 Z"></path>
    </defs>
    <g id="Modales" stroke="none" stroke-width="1" fill="none" fill-rule="evenodd" sketch:type="MSPage">
        <g id="modal-1" sketch:type="MSArtboardGroup" transform="translate(-303.000000, -296.000000)">
            <g id="contenido" sketch:type="MSLayerGroup" transform="translate(90.000000, 296.000000)">
                <g id="icono-conexion" transform="translate(213.000000, 0.000000)">
                    <g id="Oval-2">
                        <use fill="#163960" sketch:type="MSShapeGroup" xlink:href="#path-2"></use>
                        <use fill-opacity="0.5" fill="url(#radialGradient-1)" xlink:href="#path-2"></use>
                    </g>
                    <g id="wifi" transform="translate(36.000000, 39.000000)" fill="#FCFCFC" sketch:type="MSShapeGroup">
                        <path d="M49.4840455,19.108 C48.6014091,18.7630244 47.7154545,18.4263415 46.8046136,18.1510244 C46.2388636,17.9801951 45.6548636,17.8640976 45.0808182,17.7198049 C44.5034545,17.5755122 43.9377045,17.4030244 43.3503864,17.2869268 C42.5822273,17.1343415 41.7941591,17.0447805 41.0143864,16.9419512 C40.6079091,16.888878 40.2097273,16.8026341 39.8015909,16.7628293 C39.0832045,16.6931707 38.3532045,16.684878 37.6281818,16.6566829 C37.1437273,16.6367805 36.6659091,16.5853659 36.1797955,16.5853659 L36.1731591,16.5853659 L36.1681818,16.5853659 L36.1615455,16.5853659 C35.6936818,16.5853659 35.2324545,16.635122 34.76625,16.6533659 C34.0213182,16.681561 33.2747273,16.6898537 32.5380909,16.7628293 C32.2908864,16.7877073 32.047,16.842439 31.7997955,16.8722927 C30.8574318,16.9834146 29.9150682,17.1044878 28.9892955,17.2869268 C28.6690909,17.3499512 28.3621591,17.4527805 28.0436136,17.522439 C27.2007955,17.7148293 26.3579773,17.9022439 25.5350682,18.1510244 C25.0622273,18.2936585 24.6109545,18.4860488 24.1464091,18.6485854 C23.4927273,18.8758049 22.8324091,19.0814634 22.1936591,19.3468293 C21.2463182,19.7382439 20.3222045,20.1910244 19.4080455,20.6637073 C19.2703409,20.7366829 19.1243409,20.7897561 18.9866364,20.8643902 C15.8526136,22.5411707 12.9492045,24.6906341 10.3626818,27.2746341 L15.0545909,31.9649756 C15.7597045,31.2617561 16.4930227,30.5950244 17.2545455,29.9714146 C17.8866591,29.4506341 18.5486364,28.9779512 19.2155909,28.513561 C19.3499773,28.4223415 19.4744091,28.3112195 19.6104545,28.2216585 C24.1729545,25.1682927 29.492,23.4749268 35.0748409,23.2725854 C35.4398409,23.2593171 35.7998636,23.2195122 36.1698409,23.2195122 L36.1731591,23.2195122 C36.4734545,23.2195122 36.7671136,23.2543415 37.06575,23.2626341 C39.7435227,23.3422439 42.3682045,23.7419512 44.8734318,24.4999024 C45.5237955,24.6989268 46.1592273,24.9460488 46.7946591,25.1881951 C47.0617727,25.2910244 47.3388409,25.3673171 47.6042955,25.4767805 C51.1812955,26.9595122 54.4646364,29.1454634 57.28675,31.9649756 L61.9803182,27.2746341 C58.5327273,23.8281951 54.5160682,21.1562927 50.1460227,19.3451707 C49.9286818,19.2556098 49.7030455,19.1942439 49.4840455,19.108" id="Fill-1" fill-opacity="0.5"></path>
                        <path d="M0.972227273,14.5752195 L5.66413636,19.2672195 C22.4889773,2.45463415 49.8573409,2.45795122 66.6705682,19.265561 L71.3641364,14.5752195 C51.9594091,-4.82136585 20.3819318,-4.82136585 0.972227273,14.5752195" id="Fill-2" fill-opacity="0.5"></path>
                        <path d="M19.7431818,39.9707317 L24.43675,44.6627317 C30.9038864,38.2010732 41.4357955,38.2010732 47.9029318,44.6627317 L52.5948409,39.9707317 C43.5395227,30.9234146 28.8051364,30.9217561 19.7431818,39.9707317" id="Fill-3" fill-opacity="0.5"></path>
                        <path d="M36.1698409,51.4146341 C31.5957273,51.4146341 27.8743864,55.1347317 27.8743864,59.7073171 C27.8743864,64.2799024 31.5957273,68 36.1698409,68 C40.7439545,68 44.4652955,64.2799024 44.4652955,59.7073171 C44.4652955,55.1347317 40.7439545,51.4146341 36.1698409,51.4146341" id="Fill-4"></path>
                    </g>
                </g>
            </g>
        </g>
    </g>
</svg>