<?xml version="1.0" encoding="UTF-8" standalone="no"?>
<svg width="421px" height="327px" viewBox="0 0 421 327" version="1.1" xmlns="http://www.w3.org/2000/svg" xmlns:xlink="http://www.w3.org/1999/xlink" xmlns:sketch="http://www.bohemiancoding.com/sketch/ns">
    <!-- Generator: Sketch 3.3 (11970) - http://www.bohemiancoding.com/sketch -->
    <title>Rectangle 37</title>
    <desc>Created with Sketch.</desc>
    <defs>
        <linearGradient x1="50%" y1="0%" x2="50%" y2="108.586583%" id="linearGradient-1">
            <stop stop-color="#FFFFFF" stop-opacity="0.5" offset="0%"></stop>
            <stop stop-color="#E9E9EB" offset="100%"></stop>
        </linearGradient>
        <path d="M107.5,278 L406.000897,278 C414.280761,278 421,271.28618 421,263.004264 L421,14.9957363 C421,6.71707429 414.284673,0 406.000897,0 L14.9991032,0 C6.71923915,0 0,6.71381984 0,14.9957363 L0,263.004264 C0,271.282926 6.71532723,278 14.9991032,278 L58.5,278 L83,327 L107.5,278 Z" id="path-2"></path>
    </defs>
    <g id="Filtrado" stroke="none" stroke-width="1" fill="none" fill-rule="evenodd" sketch:type="MSPage">
        <g id="Portrait-7" sketch:type="MSArtboardGroup" transform="translate(-135.000000, -824.000000)">
            <g id="tooltip" sketch:type="MSLayerGroup" transform="translate(135.000000, 824.000000)">
                <g id="Rectangle-37">
                    <use stroke="#1D4A7B" stroke-width="2" fill="#FCFCFC" sketch:type="MSShapeGroup" xlink:href="#path-2"></use>
                    <use stroke="none" fill-opacity="0.75" fill="url(#linearGradient-1)" xlink:href="#path-2"></use>
                </g>
            </g>
        </g>
    </g>
</svg>