<?xml version="1.0" encoding="UTF-8" standalone="no"?>
<svg width="311px" height="298px" viewBox="0 0 311 298" version="1.1" xmlns="http://www.w3.org/2000/svg" xmlns:xlink="http://www.w3.org/1999/xlink" xmlns:sketch="http://www.bohemiancoding.com/sketch/ns">
    <!-- Generator: Sketch 3.2.2 (9983) - http://www.bohemiancoding.com/sketch -->
    <title>logo</title>
    <desc>Created with Sketch.</desc>
    <defs></defs>
    <g id="Login---home---listado-incidencias---Ajustes" stroke="none" stroke-width="1" fill="none" fill-rule="evenodd" sketch:type="MSPage">
        <g id="-login" sketch:type="MSArtboardGroup" transform="translate(-164.000000, -87.000000)">
            <g id="Pantalla-Login/Registro" sketch:type="MSLayerGroup" transform="translate(0.000000, -120.000000)">
                <g id="logo" transform="translate(164.693333, 207.080210)" sketch:type="MSShapeGroup">
                    <path d="M86.2058651,125.144458 C86.2058651,113.282532 89.2063079,102.122476 94.4893733,92.384476 C62.7326866,96.3117351 38.1416289,123.402953 38.1416289,156.273997 C38.1416289,191.846033 66.9287345,220.682191 102.440261,220.682191 C123.938291,220.682191 142.953668,210.100346 154.627391,193.866911 C116.822955,193.766154 86.2058651,163.04079 86.2058651,125.144458" id="Fill-1" fill="#1B1E58"></path>
                    <path d="M213.910426,90.2204761 C217.249204,82.4323664 219.111194,73.85766 219.111194,64.8421387 C219.111194,29.2712473 190.324088,0.435089926 154.814848,0.435089926 C119.303321,0.435089926 90.5162155,29.2712473 90.5162155,64.8421387 C90.5162155,73.85766 92.3782046,82.4323664 95.7181261,90.2216211 C107.659317,69.9899395 129.65342,56.4197137 154.814848,56.4197137 C179.976275,56.4197137 201.969235,69.9899395 213.910426,90.2204761" id="Fill-2" fill="#9E9F9E"></path>
                    <path d="M215.141465,92.384476 C220.422244,102.122476 223.422687,113.282532 223.422687,125.144458 C223.422687,163.04079 192.807883,193.766154 155.002304,193.866911 C166.674884,210.100346 185.690261,220.682191 207.187148,220.682191 C242.697532,220.682191 271.486923,191.846033 271.486923,156.273997 C271.486923,123.402953 246.894722,96.3128801 215.141465,92.384476" id="Fill-3" fill="#00A049"></path>
                    <path d="M11.8486058,258.410212 L11.8486058,278.407174 C11.8486058,281.764236 12.5481376,284.168681 13.9483442,285.614782 C15.3474078,287.062029 17.6266013,287.784507 20.7870677,287.784507 C23.9178155,287.784507 26.1901508,287.055159 27.6040738,285.595318 C29.0179968,284.136621 29.7243867,281.739047 29.7243867,278.407174 L29.7243867,258.410212 L41.6095693,258.410212 L41.6095693,278.407174 C41.6095693,285.096109 39.9304644,290.02293 36.5722545,293.187637 C33.2140446,296.351199 28.009848,297.932407 20.9596646,297.932407 C13.7711752,297.932407 8.49153889,296.358068 5.11961269,293.207101 C1.74654347,290.056134 0.0617233948,285.121299 0.0617233948,278.407174 L0.0617233948,258.410212 L11.8486058,258.410212" id="Fill-4" fill="#1B1E58"></path>
                    <path d="M64.5226651,268.20088 C65.7159841,264.500326 67.4305228,261.73407 69.6651383,259.897533 C71.8986108,258.05985 74.6681624,257.142726 77.970364,257.142726 C78.7201889,257.142726 79.9546568,257.269818 81.6771968,257.527437 C82.0098173,257.578961 82.2589969,257.616745 82.4258787,257.644225 L80.6359002,269.486686 C79.7477692,269.162658 78.8516369,268.918779 77.9509325,268.756192 C77.0479421,268.592461 76.0980877,268.512313 75.0990831,268.512313 C71.4894075,268.512313 68.8935959,269.368753 67.3127911,271.079344 C65.7297004,272.794514 64.9398695,275.661528 64.9398695,279.678095 L64.9398695,296.421042 L53.0546869,296.421042 L53.0546869,258.410212 L64.7729877,258.410212 L64.5226651,268.20088" id="Fill-5" fill="#1B1E58"></path>
                    <path d="M87.7809547,296.421042 L87.7809547,236.406111 L99.1312012,236.406111 L99.1312012,258.032371 C99.1312012,259.218563 99.0820511,260.396741 98.9860369,261.570339 C98.8877367,262.742792 98.7562887,263.883185 98.59055,264.990375 C100.533694,262.259613 102.642577,260.269649 104.919484,259.019338 C107.196391,257.769027 109.805919,257.142726 112.749211,257.142726 C118.5775,257.142726 123.123313,258.93232 126.385509,262.508072 C129.647705,266.086114 131.278803,271.074764 131.278803,277.479745 C131.278803,283.651153 129.62713,288.605453 126.323786,292.334632 C123.019298,296.067245 118.674657,297.932407 113.288719,297.932407 C110.041383,297.932407 107.284404,297.37137 105.022356,296.250441 C102.760308,295.130657 100.824022,293.373122 99.213499,290.975548 L99.2969399,296.421042 L87.7809547,296.421042 L87.7809547,296.421042 Z M98.59055,277.365248 C98.59055,280.807038 99.4992555,283.486276 101.31781,285.400672 C103.137507,287.315068 105.670452,288.272266 108.918931,288.272266 C112.167411,288.272266 114.700356,287.315068 116.520053,285.400672 C118.337464,283.486276 119.247313,280.807038 119.247313,277.365248 C119.247313,273.925748 118.324891,271.215596 116.477761,269.237081 C114.631774,267.257422 112.085113,266.26702 108.836634,266.26702 C105.697885,266.26702 103.207231,267.262002 101.360102,269.254256 C99.5141148,271.2488 98.59055,273.950937 98.59055,277.365248 L98.59055,277.365248 Z" id="Fill-6" fill="#1B1E58"></path>
                    <path d="M181.245034,296.421042 L169.743908,296.421042 L169.909647,290.975548 C168.301409,293.373122 166.36741,295.130657 164.106505,296.250441 C161.846742,297.37137 159.094336,297.932407 155.851572,297.932407 C150.442774,297.932407 146.08213,296.060375 142.767355,292.315167 C139.453723,288.571104 137.797479,283.624818 137.797479,277.479745 C137.797479,271.074764 139.426291,266.086114 142.685057,262.508072 C145.942681,258.93232 150.470206,257.142726 156.26649,257.142726 C159.288651,257.142726 161.9439,257.773607 164.232237,259.036512 C166.519432,260.298273 168.439715,262.18061 169.993088,264.678942 L169.993088,258.410212 L181.245034,258.410212 L181.245034,296.421042 L181.245034,296.421042 Z M170.410292,277.365248 C170.410292,273.950937 169.489013,271.2488 167.645312,269.254256 C165.802755,267.262002 163.314388,266.26702 160.181354,266.26702 C156.964879,266.26702 154.436506,267.257422 152.593948,269.237081 C150.750248,271.215596 149.828969,273.925748 149.828969,277.365248 C149.828969,280.807038 150.736531,283.486276 152.551656,285.400672 C154.367924,287.315068 156.882581,288.272266 160.097913,288.272266 C163.370396,288.272266 165.90677,287.315068 167.708179,285.400672 C169.508445,283.486276 170.410292,280.807038 170.410292,277.365248 L170.410292,277.365248 Z" id="Fill-7" fill="#1B1E58"></path>
                    <path d="M188.426665,289.736687 L197.534295,285.344568 C197.840626,286.822729 198.662461,287.987167 199.997516,288.844752 C201.33257,289.701193 202.986528,290.125978 204.96282,290.125978 C206.909393,290.125978 208.439904,289.79737 209.553212,289.136721 C210.666519,288.479506 211.222029,287.569252 211.222029,286.407104 C211.222029,284.572856 209.246881,283.036302 205.293154,281.795151 C204.067831,281.40815 203.095116,281.086412 202.370437,280.829938 C197.574301,279.150262 194.252668,277.461426 192.41011,275.759995 C190.565266,274.05742 189.643988,271.956393 189.643988,269.453481 C189.643988,265.739187 191.212219,262.735922 194.349825,260.439105 C197.487431,258.144578 201.626327,256.995025 206.763085,256.995025 C210.428769,256.995025 213.600666,257.679719 216.279919,259.047962 C218.961457,260.413916 220.911459,262.348921 222.132211,264.850688 L213.414353,268.901604 C212.942283,267.480692 212.121591,266.400982 210.955704,265.664764 C209.786389,264.927401 208.329031,264.56101 206.579058,264.56101 C204.827943,264.56101 203.410591,264.896487 202.327002,265.565151 C201.243414,266.234961 200.700476,267.112011 200.700476,268.19401 C200.700476,270.077492 203.400303,271.830446 208.799957,273.454019 C209.440052,273.634924 209.926981,273.778046 210.260745,273.878804 C214.727689,275.249337 217.904158,276.844285 219.790151,278.664793 C221.677286,280.485301 222.620283,282.801582 222.620283,285.614782 C222.620283,289.38518 221.050908,292.381575 217.914445,294.600534 C214.774554,296.820638 210.541929,297.932407 205.210856,297.932407 C200.989662,297.932407 197.389131,297.200769 194.403547,295.736348 C191.419107,294.274217 189.426813,292.275093 188.426665,289.736687" id="Fill-8" fill="#1B1E58"></path>
                    <path d="M271.189736,280.171578 L240.517781,280.171578 C240.988708,282.90234 242.055151,284.941538 243.717111,286.292606 C245.377927,287.645965 247.63426,288.321499 250.487253,288.321499 C252.647571,288.321499 254.510703,287.934498 256.075506,287.158206 C257.640308,286.384204 258.949073,285.210606 260.000657,283.636268 L269.596358,288.087925 C267.377745,291.420943 264.685919,293.896375 261.52431,295.510788 C258.361557,297.125201 254.603289,297.932407 250.249503,297.932407 C243.646243,297.932407 238.418043,296.098159 234.562617,292.430809 C230.707191,288.763459 228.777763,283.833203 228.777763,277.634317 C228.777763,271.67015 230.796347,266.762794 234.834657,262.914538 C238.870681,259.068572 244.039444,257.142726 250.338659,257.142726 C256.831046,257.142726 261.965518,258.944915 265.737503,262.550436 C269.511774,266.157103 271.39891,271.074764 271.39891,277.302275 C271.39891,277.640042 271.385194,278.007578 271.356618,278.407174 C271.329186,278.810205 271.273177,279.396431 271.189736,280.171578 L271.189736,280.171578 Z M259.46572,273.487223 C259.131957,271.090793 258.194676,269.279445 256.653877,268.055469 C255.113078,266.830347 253.011054,266.217786 250.345517,266.217786 C247.681124,266.217786 245.549381,266.830347 243.952574,268.055469 C242.354624,269.279445 241.336188,271.090793 240.891551,273.487223 L259.46572,273.487223 L259.46572,273.487223 Z" id="Fill-9" fill="#1B1E58"></path>
                    <path d="M291.663615,268.20088 C292.856934,264.500326 294.57033,261.73407 296.804945,259.897533 C299.039561,258.05985 301.807969,257.142726 305.112457,257.142726 C305.859996,257.142726 307.095607,257.269818 308.818147,257.527437 C309.150767,257.578961 309.399947,257.616745 309.566829,257.644225 L307.777993,269.486686 C306.888719,269.162658 305.992587,268.918779 305.091883,268.756192 C304.190035,268.592461 303.239038,268.512313 302.240033,268.512313 C298.631501,268.512313 296.035689,269.368753 294.453741,271.079344 C292.871793,272.794514 292.080819,275.661528 292.080819,279.678095 L292.080819,296.421042 L280.19678,296.421042 L280.19678,258.410212 L291.913938,258.410212 L291.663615,268.20088" id="Fill-10" fill="#1B1E58"></path>
                </g>
            </g>
        </g>
    </g>
</svg>