<?xml version="1.0" encoding="UTF-8" standalone="no"?>
<svg width="144px" height="144px" viewBox="0 0 144 144" version="1.1" xmlns="http://www.w3.org/2000/svg" xmlns:xlink="http://www.w3.org/1999/xlink" xmlns:sketch="http://www.bohemiancoding.com/sketch/ns">
    <!-- Generator: Sketch 3.3 (11970) - http://www.bohemiancoding.com/sketch -->
    <title>icono pin</title>
    <desc>Created with Sketch.</desc>
    <defs>
        <radialGradient cx="50%" cy="50%" fx="50%" fy="50%" r="50%" id="radialGradient-1">
            <stop stop-color="#FFFFFF" stop-opacity="0.5" offset="0%"></stop>
            <stop stop-color="#000000" stop-opacity="0.260869565" offset="100%"></stop>
        </radialGradient>
        <path id="path-2" d="M72,144 C111.764502,144 144,111.764502 144,72 C144,32.235498 111.764502,0 72,0 C32.235498,0 0,32.235498 0,72 C0,111.764502 32.235498,144 72,144 Z"></path>
    </defs>
    <g id="Nueva-incidencia" stroke="none" stroke-width="1" fill="none" fill-rule="evenodd" sketch:type="MSPage">
        <g id="editar-incidencia-/-localizar-mapa" sketch:type="MSArtboardGroup" transform="translate(-554.000000, -635.000000)">
            <g id="icono-pin" sketch:type="MSLayerGroup" transform="translate(554.000000, 635.000000)">
                <g id="Oval-2">
                    <use fill="#163960" sketch:type="MSShapeGroup" xlink:href="#path-2"></use>
                    <use fill-opacity="0.5" fill="url(#radialGradient-1)" xlink:href="#path-2"></use>
                </g>
                <path d="M72.5,37 C59.5426875,37 49,47.4664583 49,60.3333333 C49,72.713125 70.3644375,104.977292 71.2750625,106.34375 C71.5467813,106.753542 72.0065,107 72.5,107 C72.9935,107 73.4532188,106.753542 73.7249375,106.34375 C74.6355625,104.977292 96,72.713125 96,60.3333333 C96,47.4664583 85.4573125,37 72.5,37 L72.5,37 Z M72.5,70.5416667 C66.8320937,70.5416667 62.21875,65.9625 62.21875,60.3333333 C62.21875,54.7041667 66.8320937,50.125 72.5,50.125 C78.1679063,50.125 82.78125,54.7041667 82.78125,60.3333333 C82.78125,65.9625 78.1679063,70.5416667 72.5,70.5416667 L72.5,70.5416667 Z" id="Imported-Layers-2" fill="#FCFCFC" sketch:type="MSShapeGroup"></path>
            </g>
        </g>
    </g>
</svg>