<?xml version="1.0" encoding="UTF-8" standalone="no"?>
<svg width="144px" height="144px" viewBox="0 0 144 144" version="1.1" xmlns="http://www.w3.org/2000/svg" xmlns:xlink="http://www.w3.org/1999/xlink" xmlns:sketch="http://www.bohemiancoding.com/sketch/ns">
    <!-- Generator: Sketch 3.3 (11970) - http://www.bohemiancoding.com/sketch -->
    <title>icono gps</title>
    <desc>Created with Sketch.</desc>
    <defs>
        <radialGradient cx="50%" cy="50%" fx="50%" fy="50%" r="50%" id="radialGradient-1">
            <stop stop-color="#FFFFFF" stop-opacity="0.5" offset="0%"></stop>
            <stop stop-color="#000000" stop-opacity="0.260869565" offset="100%"></stop>
        </radialGradient>
        <path id="path-2" d="M72,144 C111.764502,144 144,111.764502 144,72 C144,32.235498 111.764502,0 72,0 C32.235498,0 0,32.235498 0,72 C0,111.764502 32.235498,144 72,144 Z"></path>
    </defs>
    <g id="Nueva-incidencia" stroke="none" stroke-width="1" fill="none" fill-rule="evenodd" sketch:type="MSPage">
        <g id="editar-incidencia-/-localizar-mapa" sketch:type="MSArtboardGroup" transform="translate(-554.000000, -452.000000)">
            <g id="icono-gps" sketch:type="MSLayerGroup" transform="translate(554.000000, 452.000000)">
                <g id="Oval-2">
                    <use fill="#163960" sketch:type="MSShapeGroup" xlink:href="#path-2"></use>
                    <use fill-opacity="0.5" fill="url(#radialGradient-1)" xlink:href="#path-2"></use>
                </g>
                <g id="icono" transform="translate(39.000000, 38.000000)" fill="#FCFCFC" sketch:type="MSShapeGroup">
                    <path d="M2.83333333,36.8333333 L8.29316667,36.8333333 C9.60925,48.83675 19.16325,58.3921667 31.1666667,59.7068333 L31.1666667,65.1666667 C31.1666667,66.7320833 32.4345833,68 34,68 C35.564,68 36.8333333,66.7320833 36.8333333,65.1666667 L36.8333333,59.7068333 C48.83675,58.3921667 58.39075,48.83675 59.7054167,36.8333333 L65.1666667,36.8333333 C66.7306667,36.8333333 68,35.5654167 68,34 C68,32.4345833 66.7306667,31.1666667 65.1666667,31.1666667 L59.7054167,31.1666667 C58.39075,19.16325 48.83675,9.60783333 36.8333333,8.29316667 L36.8333333,2.83333333 C36.8333333,1.26791667 35.564,0 34,0 C32.4345833,0 31.1666667,1.26791667 31.1666667,2.83333333 L31.1666667,8.29316667 C19.16325,9.60783333 9.60925,19.16325 8.29316667,31.1666667 L2.83333333,31.1666667 C1.26791667,31.1666667 0,32.4345833 0,34 C0,35.5654167 1.26791667,36.8333333 2.83333333,36.8333333 L2.83333333,36.8333333 Z M31.1666667,14.0179167 L31.1666667,19.0938333 C31.1666667,20.6578333 32.4345833,21.9271667 34,21.9271667 C35.564,21.9271667 36.8333333,20.6578333 36.8333333,19.0938333 L36.8333333,14.0179167 C45.7045,15.2730833 52.7269167,22.2955 53.97925,31.1666667 L48.9061667,31.1666667 C47.34075,31.1666667 46.0714167,32.4345833 46.0714167,34 C46.0714167,35.5654167 47.34075,36.8333333 48.9061667,36.8333333 L53.97925,36.8333333 C52.7269167,45.7059167 45.7045,52.7269167 36.8333333,53.97925 L36.8333333,48.9061667 C36.8333333,47.3393333 35.564,46.0728333 34,46.0728333 C32.4345833,46.0728333 31.1666667,47.3393333 31.1666667,48.9061667 L31.1666667,53.97925 C22.2955,52.7269167 15.2730833,45.7059167 14.02075,36.8333333 L19.0938333,36.8333333 C20.65925,36.8333333 21.9271667,35.5654167 21.9271667,34 C21.9271667,32.4345833 20.65925,31.1666667 19.0938333,31.1666667 L14.02075,31.1666667 C15.2730833,22.2955 22.2955,15.2730833 31.1666667,14.0179167 L31.1666667,14.0179167 Z" id="Imported-Layers"></path>
                    <ellipse id="Oval" cx="33.728" cy="33.728" rx="14.688" ry="14.688"></ellipse>
                </g>
            </g>
        </g>
    </g>
</svg>