<?xml version="1.0" encoding="UTF-8" standalone="no"?>
<svg width="49px" height="49px" viewBox="0 0 49 49" version="1.1" xmlns="http://www.w3.org/2000/svg" xmlns:xlink="http://www.w3.org/1999/xlink">
    <!-- Generator: Sketch 3.8.3 (29802) - http://www.bohemiancoding.com/sketch -->
    <title>icon download</title>
    <desc>Created with Sketch.</desc>
    <defs></defs>
    <g id="Planificación-" stroke="none" stroke-width="1" fill="none" fill-rule="evenodd" stroke-linecap="round" stroke-linejoin="round">
        <g id="Planificación-/-Orden-de-trabajo-/-Documentación" transform="translate(-650.000000, -391.000000)" stroke="#232056" stroke-width="3">
            <g id="Item-1" transform="translate(-5.000000, 392.000000)">
                <g id="icon-download" transform="translate(657.000000, 0.000000)">
                    <path d="M44.9986818,45.7727273 L0.227318182,45.7727273 L0.227318182,32.1463636 L14.8264091,32.1463636 L14.8264091,34.0931818 C14.8264091,36.235 16.5786818,37.9863636 18.7200455,37.9863636 L27.4795909,37.9863636 C29.6209545,37.9863636 31.3723182,36.235 31.3723182,34.0931818 L31.3723182,32.1463636 L44.9986818,32.1463636 L44.9986818,45.7727273 L44.9986818,45.7727273 Z" id="Stroke-1"></path>
                    <polyline id="Stroke-3" points="0.227272727 32.1465909 7.04045455 20.4675 11.9068182 20.4675"></polyline>
                    <polyline id="Stroke-5" points="32.3459545 20.4673182 38.1859545 20.4673182 44.9986818 32.1464091"></polyline>
                    <path d="M21.5,21.5 L21.5,0.5" id="Stroke-7"></path>
                    <polyline id="Stroke-9" points="29.4260455 14.6275 21.6396818 22.4138636 13.8533182 14.6275"></polyline>
                </g>
            </g>
        </g>
    </g>
</svg>