<?xml version="1.0" encoding="UTF-8" standalone="no"?>
<svg width="478px" height="398px" viewBox="0 0 478 398" version="1.1" xmlns="http://www.w3.org/2000/svg" xmlns:xlink="http://www.w3.org/1999/xlink">
    <!-- Generator: Sketch 3.8.3 (29802) - http://www.bohemiancoding.com/sketch -->
    <title>Page 1</title>
    <desc>Created with Sketch.</desc>
    <defs>
        <polygon id="path-1" points="63.1485458 65.9828137 63.1485458 0.00907159262 0.392766423 0.00907159262 0.392766423 65.9828137 63.1485458 65.9828137"></polygon>
    </defs>
    <g id="Planificación-" stroke="none" stroke-width="1" fill="none" fill-rule="evenodd">
        <g id="Home" transform="translate(-136.000000, -354.000000)">
            <g id="Page-1" transform="translate(135.000000, 354.000000)">
                <g>
                    <path d="M104.406277,278.043913 L152.970797,278.043913 L146.976711,313.697499 L96.8969406,313.697499 L104.406277,278.043913 Z M76.6202977,330.15852 L160.867311,330.15852 L172.425284,261.578109 L91.0558143,261.578109 L76.6202977,330.15852 Z" id="Fill-1" fill="#DC4437"></path>
                    <polygon id="Fill-2" fill="#DC4437" points="182.923538 194.327591 165.462298 204.584036 163.803648 214.395589 116.582301 214.395589 123.65666 180.741627 163.148792 180.741627 187.588791 166.55769 187.813449 165.232581 111.070993 165.232581 97.4624113 229.904636 176.929452 229.904636"></polygon>
                    <polygon id="Fill-3" fill="#DC4437" points="191.50789 169.226567 149.721371 193.5043 138.818254 183.018233 127.967717 189.615079 147.035027 209.797889 201.684451 177.67474"></polygon>
                    <g id="Group-6" transform="translate(415.085988, 0.000000)">
                        <mask id="mask-2" fill="white">
                            <use xlink:href="#path-1"></use>
                        </mask>
                        <g id="Clip-5"></g>
                        <path d="M59.9177625,29.6977675 L39.3973411,5.36741224 C34.0007522,-1.00459587 24.4599274,-1.80827257 18.0738843,3.57349103 L0.392766423,18.5371857 L40.444155,65.9828137 L58.1252729,51.0334703 C64.511316,45.6373554 65.3143513,36.084127 59.9177625,29.6977675" id="Fill-4" fill="#DC4437" mask="url(#mask-2)"></path>
                    </g>
                    <polygon id="Fill-7" fill="#DC4437" points="71.8212055 105.092209 1.00113465 397.434392 465.146013 397.434392 399.139374 124.97364 381.458256 139.836875 438.837045 376.744501 27.3101026 376.744501 88.0874515 125.777317 274.205236 125.777317 299.730289 105.092209"></polygon>
                    <polygon id="Fill-8" fill="#DC4437" points="407.691701 25.1148968 245.975675 161.830828 286.027064 209.276455 376.827419 132.510979 376.903899 132.453574 396.860283 115.581147 447.74309 72.5605248"></polygon>
                    <polygon id="Fill-9" fill="#DC4437" points="212.870543 230.873832 275.64592 215.647028 237.965398 171.004701"></polygon>
                </g>
            </g>
        </g>
    </g>
</svg>