{
    "prepare_queue": {
        "installed": [],
        "uninstalled": []
    },
    "config_munge": {
        "files": {}
    },
    "installed_plugins": {
        "cordova-plugin-app-version": {
            "PACKAGE_NAME": "es.urbaser.urbamovil"
        },
        "cordova-plugin-bluetooth-serial": {
            "PACKAGE_NAME": "es.urbaser.urbamovil"
        },
        "cordova-plugin-bluetoothspp": {
            "PACKAGE_NAME": "es.urbaser.urbamovil"
        },
        "cordova-plugin-camera": {
            "PACKAGE_NAME": "es.urbaser.urbamovil"
        },
        "cordova-plugin-device": {
            "PACKAGE_NAME": "es.urbaser.urbamovil"
        },
        "cordova-plugin-file-transfer": {
            "PACKAGE_NAME": "es.urbaser.urbamovil"
        },
        "cordova-plugin-geolocation": {
            "PACKAGE_NAME": "es.urbaser.urbamovil"
        },
        "cordova-plugin-network-information": {
            "PACKAGE_NAME": "es.urbaser.urbamovil"
        },
        "cordova-plugin-splashscreen": {
            "PACKAGE_NAME": "es.urbaser.urbamovil"
        },
        "cordova-plugin-whitelist": {
            "PACKAGE_NAME": "es.urbaser.urbamovil"
        },
        "ionic-plugin-keyboard": {
            "PACKAGE_NAME": "es.urbaser.urbamovil"
        },
        "phonegap-nfc": {
            "PACKAGE_NAME": "es.urbaser.urbamovil"
        },
        "phonegap-plugin-barcodescanner": {
            "PACKAGE_NAME": "es.urbaser.urbamovil"
        }
    },
    "dependent_plugins": {
        "cordova-plugin-bb-app": {
            "PACKAGE_NAME": "es.urbaser.urbamovil"
        },
        "cordova-plugin-file": {
            "PACKAGE_NAME": "es.urbaser.urbamovil"
        }
    }
}