<?xml version="1.0" encoding="UTF-8" standalone="no"?>
<svg width="42px" height="42px" viewBox="0 0 42 42" version="1.1" xmlns="http://www.w3.org/2000/svg" xmlns:xlink="http://www.w3.org/1999/xlink" xmlns:sketch="http://www.bohemiancoding.com/sketch/ns">
    <!-- Generator: Sketch 3.2.2 (9983) - http://www.bohemiancoding.com/sketch -->
    <title>Imported Layers</title>
    <desc>Created with Sketch.</desc>
    <defs></defs>
    <g id="Login---home---listado-incidencias---Ajustes" stroke="none" stroke-width="1" fill="none" fill-rule="evenodd" sketch:type="MSPage">
        <g id="Home" sketch:type="MSArtboardGroup" transform="translate(-34.000000, -37.000000)" fill="#1D4A7B">
            <g id="Pantalla-Home" sketch:type="MSLayerGroup">
                <g id="Barra-superior" sketch:type="MSShapeGroup">
                    <path d="M54.6133333,37.5682159 C43.3211733,37.5682159 34.1333333,46.7604753 34.1333333,58.05997 C34.1333333,63.489431 36.2359467,68.6063928 40.05376,72.4690885 L40.0546133,72.4699423 C43.9338667,76.3915517 49.1042133,78.5517241 54.6133333,78.5517241 C60.1326933,78.5517241 65.3098667,76.3847211 69.1908267,72.4485967 C72.9975467,68.5893163 75.0933333,63.4791852 75.0933333,58.05997 C75.0933333,46.7604753 65.9054933,37.5682159 54.6133333,37.5682159 L54.6133333,37.5682159 Z M68.4288,70.7443658 C66.6274133,69.6745255 63.9232,68.6900675 61.0568533,67.6526724 C60.34176,67.393964 59.6130133,67.1309865 58.88,66.8586169 L58.88,63.7037406 C59.73504,63.176078 61.2420267,61.8125225 61.42208,58.6909453 C62.0817067,58.3058711 62.49728,57.4494865 62.49728,56.3523238 C62.49728,55.3644505 62.1602133,54.5712489 61.61152,54.1417759 C62.0245333,52.8490877 62.7720533,50.4814363 62.2677333,48.460437 C61.6763733,46.0927856 58.4644267,45.2526237 55.8933333,45.2526237 C53.6029867,45.2526237 50.8040533,45.9194595 49.80224,47.7389565 C48.6007467,47.6800427 47.9325867,48.2059978 47.5997867,48.6448628 C46.5160533,50.0767241 47.232,52.688569 47.6347733,54.126407 C47.0749867,54.5524648 46.7293867,55.352497 46.7293867,56.3523238 C46.7293867,57.4494865 47.14496,58.3058711 47.8045867,58.6909453 C47.98464,61.8125225 49.4916267,63.176078 50.3466667,63.7037406 L50.3466667,66.8603246 C49.6887467,67.1053718 49.0146133,67.3495652 48.3396267,67.5937586 C45.5722667,68.5978546 42.7281067,69.6352496 40.8174933,70.7665652 C37.61408,67.2889438 35.84,62.8106417 35.84,58.05997 C35.84,47.7022421 44.2615467,39.2758621 54.6133333,39.2758621 C64.96512,39.2758621 73.3866667,47.7022421 73.3866667,58.05997 C73.3866667,62.799542 71.6202667,67.2693058 68.4288,70.7443658 L68.4288,70.7443658 Z" id="Imported-Layers"></path>
                </g>
            </g>
        </g>
    </g>
</svg>