<?xml version="1.0" encoding="UTF-8" standalone="no"?>
<svg width="54px" height="54px" viewBox="0 0 54 54" version="1.1" xmlns="http://www.w3.org/2000/svg" xmlns:xlink="http://www.w3.org/1999/xlink" xmlns:sketch="http://www.bohemiancoding.com/sketch/ns">
    <!-- Generator: Sketch 3.2.2 (9983) - http://www.bohemiancoding.com/sketch -->
    <title>Imported Layers</title>
    <desc>Created with Sketch.</desc>
    <defs></defs>
    <g id="Nueva-incidencia" stroke="none" stroke-width="1" fill="none" fill-rule="evenodd" sketch:type="MSPage">
        <g id="editar-incidencia-3" sketch:type="MSArtboardGroup" transform="translate(-78.000000, -734.000000)" fill="#FCFCFC">
            <g id="boton-gestionar-incidencias-2" sketch:type="MSLayerGroup" transform="translate(46.000000, 702.000000)">
                <g id="Imported-Layers" transform="translate(35.000000, 34.000000)" sketch:type="MSShapeGroup">
                    <path d="M26,34 C26,35.655 24.654,37 23,37 C21.346,37 20,35.655 20,34 L20,22.865 L16,23.754 L16,47.803 L32,44.246 L32,20.198 L26,21.531 L26,34" id="Fill-1"></path>
                    <path d="M47.274,24.038 L34,20.246 L34,44.325 L46.726,47.962 C46.815,47.987 46.908,48 47,48 C47.215,48 47.427,47.931 47.603,47.798 C47.853,47.61 48,47.314 48,47 L48,25 C48,24.554 47.704,24.161 47.274,24.038" id="Fill-2"></path>
                    <path d="M0.397,20.201 C0.148,20.391 0,20.686 0,21 L0,43 C0,43.447 0.296,43.838 0.726,43.962 L14,47.754 L14,23.674 L1.274,20.038 C0.975,19.952 0.647,20.013 0.397,20.201" id="Fill-3"></path>
                    <path d="M20,13.315 C20.622,13.612 21.294,13.818 22,13.92 L22,34 C22,34.552 22.448,35 23,35 C23.552,35 24,34.552 24,34 L24,13.92 C24.706,13.818 25.378,13.612 26,13.315 C28.36,12.188 30,9.785 30,7 C30,3.14 26.859,0 23,0 C19.141,0 16,3.14 16,7 C16,9.785 17.64,12.188 20,13.315 L20,13.315 Z M23,4 C24.654,4 26,5.346 26,7 C26,7.552 25.553,8 25,8 C24.447,8 24,7.552 24,7 C24,6.448 23.552,6 23,6 C22.447,6 22,5.552 22,5 C22,4.448 22.447,4 23,4 L23,4 Z" id="Fill-4"></path>
                </g>
            </g>
        </g>
    </g>
</svg>