<?xml version="1.0" encoding="UTF-8" standalone="no"?>
<svg width="47px" height="47px" viewBox="0 0 47 47" version="1.1" xmlns="http://www.w3.org/2000/svg" xmlns:xlink="http://www.w3.org/1999/xlink" xmlns:sketch="http://www.bohemiancoding.com/sketch/ns">
    <!-- Generator: Sketch 3.2.2 (9983) - http://www.bohemiancoding.com/sketch -->
    <title>icono</title>
    <desc>Created with Sketch.</desc>
    <defs></defs>
    <g id="Login---home---listado-incidencias---Ajustes" stroke="none" stroke-width="1" fill="none" fill-rule="evenodd" sketch:type="MSPage">
        <g id="Home" sketch:type="MSArtboardGroup" transform="translate(-78.000000, -679.000000)" fill="#FCFCFC">
            <g id="Pantalla-Home" sketch:type="MSLayerGroup">
                <g id="boton-nueva-incidencia" transform="translate(40.960000, 644.520240)" sketch:type="MSShapeGroup">
                    <g id="icono" transform="translate(40.106667, 36.714393)">
                        <path d="M29.0133333,17.1200067 L29.0133333,9.39205397 C29.0133333,9.16493703 28.92288,8.94806597 28.7633067,8.78840105 L20.2299733,0.250170165 C20.0695467,0.0896514243 19.8528,0 19.6266667,0 L0.853333333,0 C0.382293333,0 0,0.381658921 0,0.853823088 L0,36.7143928 C0,37.186557 0.382293333,37.5682159 0.853333333,37.5682159 L19.65056,37.5682159 C18.0360533,35.4242661 17.0666667,32.7688763 17.0666667,29.8838081 C17.0666667,23.1095757 22.3530667,17.5622871 29.0133333,17.1200067 L29.0133333,17.1200067 Z M19.6266667,0.853823088 L28.16,9.39205397 L19.6266667,9.39205397 L19.6266667,0.853823088 L19.6266667,0.853823088 Z" id="Fill-1"></path>
                        <path d="M29.8666667,18.7841079 C23.7499733,18.7841079 18.7733333,23.7636042 18.7733333,29.8838081 C18.7733333,36.004012 23.7499733,40.9835082 29.8666667,40.9835082 C35.9842133,40.9835082 40.96,36.004012 40.96,29.8838081 C40.96,23.7636042 35.9842133,18.7841079 29.8666667,18.7841079 L29.8666667,18.7841079 Z M34.19392,29.55594 C34.0266667,29.7224355 33.8090667,29.8061102 33.5906133,29.8061102 C33.37216,29.8061102 33.1537067,29.7224355 32.9873067,29.55594 L30.72,27.2881859 L30.72,34.5379978 C30.72,35.0101619 30.3377067,35.3918208 29.8666667,35.3918208 C29.3956267,35.3918208 29.0133333,35.0101619 29.0133333,34.5379978 L29.0133333,27.2881859 L26.7460267,29.55594 C26.4132267,29.8897849 25.8730667,29.8897849 25.5394133,29.55594 C25.2066133,29.222949 25.2066133,28.682479 25.5394133,28.3486342 L29.25568,24.6310885 C29.2616533,24.6242579 29.2676267,24.6182811 29.2744533,24.6123043 L29.8666667,24.0197511 L30.45888,24.6123043 C30.4657067,24.6182811 30.4708267,24.6242579 30.4776533,24.6310885 L34.19392,28.3486342 C34.52672,28.682479 34.52672,29.222949 34.19392,29.55594 L34.19392,29.55594 Z" id="Fill-2"></path>
                    </g>
                </g>
            </g>
        </g>
    </g>
</svg>