<?xml version="1.0" encoding="UTF-8" standalone="no"?>
<svg width="48px" height="48px" viewBox="0 0 48 48" version="1.1" xmlns="http://www.w3.org/2000/svg" xmlns:xlink="http://www.w3.org/1999/xlink" xmlns:sketch="http://www.bohemiancoding.com/sketch/ns">
    <!-- Generator: Sketch 3.3 (11970) - http://www.bohemiancoding.com/sketch -->
    <title>icono fecha</title>
    <desc>Created with Sketch.</desc>
    <defs></defs>
    <g id="Estado---cambiar-estado---añadir-imagen-cierre" stroke="none" stroke-width="1" fill="none" fill-rule="evenodd" sketch:type="MSPage">
        <g id="Estado-/-Historico" sketch:type="MSArtboardGroup" transform="translate(-45.000000, -251.000000)" fill="#1AAA53">
            <g id="creacion" sketch:type="MSLayerGroup" transform="translate(0.000000, 148.000000)">
                <g id="icono-fecha" transform="translate(45.000000, 103.000000)" sketch:type="MSShapeGroup">
                    <path d="M0,47 C0,47.552 0.448,48 1,48 L47,48 C47.552,48 48,47.552 48,47 L48,16 L0,16 L0,47 L0,47 Z M23,23 C23,22.447 23.448,22 24,22 L34,22 C34.328,22 34.635,22.161 34.822,22.431 C35.009,22.7 35.051,23.044 34.937,23.351 L32.443,30 L33,30 C33.552,30 34,30.447 34,31 C34,31.552 33.552,32 33,32 L31.693,32 L28.937,39.352 C28.786,39.753 28.405,40 28,40 C27.883,40 27.765,39.979 27.649,39.936 C27.132,39.742 26.87,39.166 27.063,38.648 L29.557,32 L27,32 C26.448,32 26,31.552 26,31 C26,30.447 26.448,30 27,30 L30.307,30 L32.557,24 L25,24 L25,25 C25,25.552 24.552,26 24,26 C23.448,26 23,25.552 23,25 L23,23 L23,23 Z M15.707,27.707 C15.316,28.097 14.684,28.097 14.293,27.707 C13.902,27.316 13.902,26.684 14.293,26.293 L18.293,22.293 C18.579,22.005 19.008,21.919 19.383,22.076 C19.756,22.23 20,22.596 20,23 L20,38 L23,38 C23.552,38 24,38.447 24,39 C24,39.553 23.552,40 23,40 L15,40 C14.448,40 14,39.553 14,39 C14,38.447 14.448,38 15,38 L18,38 L18,25.414 L15.707,27.707 L15.707,27.707 Z" id="Fill-1"></path>
                    <path d="M47,4 L40,4 L40,1 C40,0.447 39.552,0 39,0 L33,0 C32.448,0 32,0.447 32,1 L32,4 L16,4 L16,1 C16,0.447 15.552,0 15,0 L9,0 C8.448,0 8,0.447 8,1 L8,4 L1,4 C0.448,4 0,4.447 0,5 L0,14 L48,14 L48,5 C48,4.447 47.552,4 47,4 L47,4 Z M10,2 L14,2 L14,8 L10,8 L10,2 Z M34,2 L38,2 L38,8 L34,8 L34,2 Z" id="Fill-2"></path>
                </g>
            </g>
        </g>
    </g>
</svg>