<?xml version="1.0" encoding="utf-8"?>
<!-- Generator: Adobe Illustrator 18.1.1, SVG Export Plug-In . SVG Version: 6.00 Build 0)  -->
<svg version="1.1" id="Layer_1" xmlns:sketch="http://www.bohemiancoding.com/sketch/ns" width="64" height="64"
	 xmlns="http://www.w3.org/2000/svg" xmlns:xlink="http://www.w3.org/1999/xlink" x="0px" y="0px" viewBox="-288.5 388.9 64 64"
	 enable-background="new -288.5 388.9 64 64" xml:space="preserve">
<title>Imported Layers</title>
<desc>Created with Sketch.</desc>
<g id="Login---home---listado-incidencias---Ajustes" sketch:type="MSPage">
	<g id="_x2D_login" transform="translate(-64.000000, -516.000000)" sketch:type="MSArtboardGroup">
		<g id="Pantalla-Login_x2F_Registro" transform="translate(0.000000, -120.000000)" sketch:type="MSLayerGroup">
			<g id="text-fild" transform="translate(40.960000, 607.922039)" sketch:type="MSShapeGroup">
				<path id="Imported-Layers" fill="#1D4A7B" d="M-204.4,468.1c-2-3.9-8.6-6.4-17.9-9.8c-1.1-0.4-2.2-0.8-3.3-1.2v-6.4
					c1.2-1,3.7-3.6,4-7.8c0.6-0.5,1.1-1.4,1.4-2.6c0.4-1.9,0.2-4.1-1.1-5.4c0.1-0.2,0.2-0.4,0.2-0.6c1-2.6,2.9-7.4,2.2-11.1
					c-0.9-4.6-7.5-6.2-12.8-6.2c-4.1,0-9.1,1-10.7,3.9c-1.6,0.2-2.8,0.8-3.7,2c-2.3,3.1-0.6,8.7,0.3,11.6c0,0.1,0.1,0.3,0.1,0.4
					c-1.4,1.3-1.6,3.6-1.2,5.5c0.3,1.2,0.8,2,1.4,2.6c0.3,4.2,2.8,6.8,4,7.8v6.4c-1.1,0.4-2.2,0.8-3.3,1.2
					c-9.2,3.4-15.9,5.9-17.9,9.8c-2.8,5.5-2.8,11.2-2.8,11.4c0,0.7,0.6,1.3,1.3,1.3h61.2c0.7,0,1.3-0.6,1.3-1.3
					C-201.6,479.3-201.6,473.7-204.4,468.1"/>
			</g>
		</g>
	</g>
</g>
</svg>
