<?xml version="1.0" encoding="UTF-8" standalone="no"?>
<svg width="54px" height="54px" viewBox="0 0 54 54" version="1.1" xmlns="http://www.w3.org/2000/svg" xmlns:xlink="http://www.w3.org/1999/xlink" xmlns:sketch="http://www.bohemiancoding.com/sketch/ns">
    <!-- Generator: Sketch 3.3.2 (12043) - http://www.bohemiancoding.com/sketch -->
    <title>bandera copy 2</title>
    <desc>Created with Sketch.</desc>
    <defs>
        <circle id="path-1" cx="27" cy="27" r="25"></circle>
    </defs>
    <g id="Login---home---listado-incidencias---Ajustes" stroke="none" stroke-width="1" fill="none" fill-rule="evenodd" sketch:type="MSPage">
        <g id="Notificaciones" sketch:type="MSArtboardGroup" transform="translate(-241.000000, -1244.000000)">
            <g id="Pantalla-listado-incidencias" sketch:type="MSLayerGroup" transform="translate(0.000000, -3.000000)">
                <g id="idioma-abierto" transform="translate(0.000000, 721.000000)">
                    <g id="idiomas" transform="translate(241.000000, 81.000000)">
                        <g id="frances-copy" transform="translate(0.000000, 445.000000)">
                            <g id="bandera-copy-2">
                                <circle id="circulo" fill="#FCFCFC" sketch:type="MSShapeGroup" cx="27" cy="27" r="27"></circle>
                                <mask id="mask-2" sketch:name="Mask" fill="white">
                                    <use xlink:href="#path-1"></use>
                                </mask>
                                <g id="Mask">
                                    <use sketch:type="MSShapeGroup" xlink:href="#path-1"></use>
                                    <use xlink:href="#path-1"></use>
                                </g>
                                <g id="bandera-euskadi" mask="url(#mask-2)" sketch:type="MSShapeGroup">
                                    <g transform="translate(-20.000000, -8.000000)">
                                        <rect id="Rectangle-538" stroke="none" fill="#00237D" x="0.189243028" y="10.1901408" width="94.6215139" height="53.2394366"></rect>
                                        <rect id="Rectangle-537" stroke="#FFFFFF" stroke-width="3" fill="#D1142C" transform="translate(47.310757, 37.626761) rotate(46.000000) translate(-47.310757, -37.626761) " x="0" y="34.6267606" width="94.6215139" height="6"></rect>
                                        <rect id="Rectangle-537-Copy" stroke="#FFFFFF" stroke-width="3" fill="#D1142C" transform="translate(48.310757, 35.626761) rotate(-45.000000) translate(-48.310757, -35.626761) " x="1" y="32.6267606" width="94.6215139" height="6"></rect>
                                        <path d="M51.4741036,32.9317238 L51.4741036,10.1901408 L43.1474104,10.1901408 L43.1474104,32.9317238 L20.4058274,32.9317238 L20.4058274,41.258417 L43.1474104,41.258417 L43.1474104,64 L51.4741036,64 L51.4741036,41.258417 L74.2156865,41.258417 L74.2156865,32.9317238 L51.4741036,32.9317238 Z" id="Rectangle-536" stroke="#FFFFFF" stroke-width="2" fill="#D1142C"></path>
                                    </g>
                                </g>
                            </g>
                        </g>
                    </g>
                </g>
            </g>
        </g>
    </g>
</svg>