<?xml version="1.0" encoding="UTF-8" standalone="no"?>
<svg width="54px" height="54px" viewBox="0 0 54 54" version="1.1" xmlns="http://www.w3.org/2000/svg" xmlns:xlink="http://www.w3.org/1999/xlink">
    <!-- Generator: Sketch 39.1 (31720) - http://www.bohemiancoding.com/sketch -->
    <title>icon write </title>
    <desc>Created with Sketch.</desc>
    <defs></defs>
    <g id="Planificación-" stroke="none" stroke-width="1" fill="none" fill-rule="evenodd" stroke-linecap="round" stroke-linejoin="round">
        <g id="Planificación/Orden-de-trabajo/Recursos" transform="translate(-652.000000, -36.000000)" stroke="#232056" stroke-width="3">
            <g id="Barra-superior-+-Planificación-+-flecha-volver" transform="translate(0.000000, -2.000000)">
                <g id="icon-write-" transform="translate(654.000000, 40.000000)">
                    <polyline id="Stroke-1" points="41.3205263 22.7513534 41.3205263 49.8118797 0.187819549 49.8118797 0.187819549 4.35022556 34.8261654 4.35022556"></polyline>
                    <path d="M28.6487218,24.4129699 L22.5261654,27.4746241 L25.5874436,21.3516917 L46.2528571,0.686278195 C48.2784211,-1.34003759 51.3415789,1.72011278 49.3141353,3.74642857 L28.6487218,24.4129699 L28.6487218,24.4129699 Z" id="Stroke-3"></path>
                    <path d="M43.1928947,3.74654135 L46.2530451,6.80894737" id="Stroke-5"></path>
                </g>
            </g>
        </g>
    </g>
</svg>