<?xml version="1.0" encoding="UTF-8" standalone="no"?>
<svg width="36px" height="49px" viewBox="0 0 36 49" version="1.1" xmlns="http://www.w3.org/2000/svg" xmlns:xlink="http://www.w3.org/1999/xlink">
    <!-- Generator: Sketch 3.8.3 (29802) - http://www.bohemiancoding.com/sketch -->
    <title>Fill 1</title>
    <desc>Created with Sketch.</desc>
    <defs></defs>
    <g id="Planificación-" stroke="none" stroke-width="1" fill="none" fill-rule="evenodd">
        <g id="Home" transform="translate(-91.000000, -984.000000)" fill="#FFFFFF">
            <g id="boton-consultar-Ot" transform="translate(45.000000, 949.000000)">
                <g id="icon-consultar-" transform="translate(46.000000, 35.000000)">
                    <path d="M9.10123404,41.0042775 C9.10123404,41.6543613 8.57374468,42.1846387 7.92651064,42.1846387 C7.27978723,42.1846387 6.75229787,41.6543613 6.75229787,41.0042775 C6.75229787,40.3544503 7.27978723,39.8244293 7.92651064,39.8244293 C8.57374468,39.7643979 9.10123404,40.3544503 9.10123404,41.0042775 L9.10123404,41.0042775 Z M9.10123404,34.5144712 C9.10123404,35.164555 8.57374468,35.6945759 7.92651064,35.6945759 C7.27978723,35.6945759 6.75229787,35.164555 6.75229787,34.5144712 C6.75229787,33.8643874 7.27978723,33.334623 7.92651064,33.334623 C8.57374468,33.334623 9.10123404,33.8643874 9.10123404,34.5144712 L9.10123404,34.5144712 Z M9.10123404,27.8502147 C9.10123404,28.5002984 8.57374468,29.0298063 7.92651064,29.0298063 C7.27978723,29.0298063 6.75229787,28.5000419 6.75229787,27.8502147 C6.75229787,27.1998743 7.27978723,26.6701099 7.92651064,26.6701099 C8.57374468,26.6701099 9.10123404,27.1998743 9.10123404,27.8502147 L9.10123404,27.8502147 Z M9.10123404,21.4150524 C9.10123404,22.0648796 8.57374468,22.5949005 7.92651064,22.5949005 C7.27978723,22.5949005 6.75229787,22.0648796 6.75229787,21.4150524 C6.75229787,20.764712 7.27978723,20.2349476 7.92651064,20.2349476 C8.57374468,20.1800471 9.10123404,20.7103246 9.10123404,21.4150524 L9.10123404,21.4150524 Z M9.10123404,15.1050838 C9.10123404,15.7554241 8.57374468,16.285445 7.92651064,16.285445 C7.27978723,16.285445 6.75229787,15.7554241 6.75229787,15.1050838 C6.75229787,14.4552565 7.27978723,13.9254921 7.92651064,13.9254921 C8.57374468,13.8652042 9.10123404,14.3952251 9.10123404,15.1050838 L9.10123404,15.1050838 Z M9.10123404,8.61553403 C9.10123404,9.2656178 8.57374468,9.7953822 7.92651064,9.7953822 C7.27978723,9.7953822 6.75229787,9.2656178 6.75229787,8.61553403 C6.75229787,7.96519372 7.27978723,7.43568586 7.92651064,7.43568586 C8.57374468,7.43568586 9.10123404,7.96570681 9.10123404,8.61553403 L9.10123404,8.61553403 Z M12.977234,8.61553403 C12.977234,8.02548168 13.4449787,7.55574869 14.0319574,7.55574869 L27.4173191,7.55574869 C28.0042979,7.55574869 28.4717872,8.02548168 28.4717872,8.61553403 C28.4717872,9.20558639 28.0042979,9.67531937 27.4173191,9.67531937 L14.0375745,9.67531937 C13.4503404,9.73535079 12.977234,9.20558639 12.977234,8.61553403 L12.977234,8.61553403 Z M12.977234,15.1050838 C12.977234,14.5155445 13.4449787,14.045555 14.0319574,14.045555 L27.4173191,14.045555 C28.0042979,14.045555 28.4717872,14.5155445 28.4717872,15.1050838 C28.4717872,15.6953927 28.0042979,16.1653822 27.4173191,16.1653822 L14.0375745,16.1653822 C13.4503404,16.1653822 12.977234,15.6953927 12.977234,15.1050838 L12.977234,15.1050838 Z M28.6566383,21.5351152 C28.6566383,22.124911 28.1894043,22.5949005 27.6021702,22.5949005 L14.0919574,22.5949005 C13.5047234,22.5949005 13.0369787,22.124911 13.0369787,21.5351152 C13.0369787,20.9450628 13.5047234,20.4753298 14.0919574,20.4753298 L27.5965532,20.4753298 C28.1294043,20.4753298 28.6566383,20.9450628 28.6566383,21.5351152 L28.6566383,21.5351152 Z M28.6566383,27.9648901 C28.6566383,28.5549424 28.1894043,29.0244188 27.6021702,29.0244188 L14.0919574,29.0244188 C13.5047234,29.0244188 13.0369787,28.5549424 13.0369787,27.9648901 C13.0369787,27.3748377 13.5047234,26.9051047 14.0919574,26.9051047 L27.5965532,26.9051047 C28.1294043,26.9048482 28.6566383,27.3748377 28.6566383,27.9648901 L28.6566383,27.9648901 Z M28.6566383,41.0042775 C28.6566383,41.5945864 28.1894043,42.0643194 27.6021702,42.0643194 L14.0919574,42.0643194 C13.5047234,42.0643194 13.0369787,41.5945864 13.0369787,41.0042775 C13.0369787,40.4144817 13.5047234,39.9447487 14.0919574,39.9447487 L27.5965532,39.9447487 C28.1294043,39.8847173 28.6566383,40.4144817 28.6566383,41.0042775 L28.6566383,41.0042775 Z M28.6566383,34.4546963 C28.6566383,35.0447487 28.1894043,35.5142251 27.6021702,35.5142251 L14.0919574,35.5142251 C13.5047234,35.5142251 13.0369787,35.0447487 13.0369787,34.4546963 C13.0369787,33.8643874 13.5047234,33.394911 14.0919574,33.394911 L27.5965532,33.394911 C28.1294043,33.334623 28.6566383,33.8643874 28.6566383,34.4546963 L28.6566383,34.4546963 Z M33.647617,46.0792408 C33.647617,46.4943298 33.3542553,46.7896126 32.9408936,46.7896126 L2.87578723,46.7896126 C2.46268085,46.7896126 2.16931915,46.4943298 2.16931915,46.0792408 L2.16931915,3.12548168 C2.16931915,2.71013613 2.46268085,2.41536649 2.87578723,2.41536649 L32.9408936,2.41536649 C33.354,2.41536649 33.647617,2.71013613 33.647617,3.12548168 L33.647617,46.0792408 Z M32.9408936,0.235507853 L2.87578723,0.235507853 C1.28846809,0.235507853 0.000127659574,1.53567539 0.000127659574,3.12548168 L0.000127659574,46.0738534 C0.000127659574,47.6690471 1.29382979,48.9635707 2.87578723,48.9635707 L32.9408936,48.9635707 C34.5284681,48.9635707 35.8170638,47.6634031 35.8170638,46.0738534 L35.8170638,3.12548168 C35.8170638,1.53567539 34.5284681,0.235507853 32.9408936,0.235507853 L32.9408936,0.235507853 Z" id="Fill-1"></path>
                </g>
            </g>
        </g>
    </g>
</svg>