<?xml version="1.0" encoding="UTF-8" standalone="no"?>
<svg width="44px" height="30px" viewBox="0 0 44 30" version="1.1" xmlns="http://www.w3.org/2000/svg" xmlns:xlink="http://www.w3.org/1999/xlink" xmlns:sketch="http://www.bohemiancoding.com/sketch/ns">
    <!-- Generator: Sketch 3.3.1 (12005) - http://www.bohemiancoding.com/sketch -->
    <title>Imported Layers</title>
    <desc>Created with Sketch.</desc>
    <defs></defs>
    <g id="Login-ciudadano---home-ciudadano" stroke="none" stroke-width="1" fill="none" fill-rule="evenodd" sketch:type="MSPage">
        <g id="-login-ciudadano" sketch:type="MSArtboardGroup" transform="translate(-78.000000, -859.000000)" fill="#1D4A7B">
            <g id="Pantalla-Login/Registro" sketch:type="MSLayerGroup">
                <g id="text-fild-2" transform="translate(48.000000, 811.000000)" sketch:type="MSShapeGroup">
                    <g id="Imported-Layers" transform="translate(30.000000, 48.000000)">
                        <path d="M43.416,1.95 L22.629,18.777 C22.446,18.926 22.223,19 22,19 C21.777,19 21.554,18.926 21.371,18.777 L0.584,1.95 C0.221,2.552 0,3.248 0,4 L0,26 C0,28.206 1.794,30 4,30 L40,30 C42.206,30 44,28.206 44,26 L44,4 C44,3.248 43.779,2.552 43.416,1.95" id="Fill-1"></path>
                        <path d="M41.975,0.543 C41.39,0.207 40.722,0 40,0 L4,0 C3.278,0 2.61,0.207 2.025,0.543 L22,16.713 L41.975,0.543" id="Fill-2"></path>
                    </g>
                </g>
            </g>
        </g>
    </g>
</svg>