<?xml version="1.0" encoding="UTF-8" standalone="no"?>
<svg width="51px" height="48px" viewBox="0 0 51 48" version="1.1" xmlns="http://www.w3.org/2000/svg" xmlns:xlink="http://www.w3.org/1999/xlink" xmlns:sketch="http://www.bohemiancoding.com/sketch/ns">
    <!-- Generator: Sketch 3.5.1 (25234) - http://www.bohemiancoding.com/sketch -->
    <title>Group</title>
    <desc>Created with Sketch.</desc>
    <defs></defs>
    <g id="Estado---cambiar-estado---añadir-imagen-cierre" stroke="none" stroke-width="1" fill="none" fill-rule="evenodd" sketch:type="MSPage">
        <g id="añadir-imagen-de-cierre" sketch:type="MSArtboardGroup" transform="translate(-31.000000, -154.000000)" stroke-linecap="square" stroke="#1D4A7B" stroke-width="5">
            <g id="Pantalla-listado-incidencias" sketch:type="MSLayerGroup" transform="translate(0.000000, -3.000000)">
                <g id="Group" transform="translate(33.000000, 158.000000)" sketch:type="MSShapeGroup">
                    <path d="M0.5,1.5 L45.5,1.5" id="Line"></path>
                    <path d="M1,22.5 L46,22.5" id="Line-Copy"></path>
                    <path d="M1,44 L46,44" id="Line-Copy-2"></path>
                </g>
            </g>
        </g>
    </g>
</svg>