<?xml version="1.0" encoding="UTF-8" standalone="no"?>
<svg width="64px" height="64px" viewBox="0 0 64 64" version="1.1" xmlns="http://www.w3.org/2000/svg" xmlns:xlink="http://www.w3.org/1999/xlink">
    <!-- Generator: Sketch 3.8.3 (29802) - http://www.bohemiancoding.com/sketch -->
    <title>botón mas </title>
    <desc>Created with Sketch.</desc>
    <defs></defs>
    <g id="Planificación-" stroke="none" stroke-width="1" fill="none" fill-rule="evenodd">
        <g id="Nueva-OT/recursos" transform="translate(-343.000000, -1218.000000)">
            <g id="botón-mas-" transform="translate(330.000000, 1204.000000)">
                <path d="M45.0263977,14.0277705 C27.6230227,14.0277705 13.4357727,28.1315531 13.4027727,45.4675096 C13.3862727,53.8821183 16.6601477,61.7982053 22.6221477,67.7585531 C28.5827727,73.7202705 36.5192727,77.0113357 44.9672727,77.0277705 L45.0291477,77.0277705 C62.4325227,77.0277705 76.6197727,62.9239879 76.6527727,45.5880313 C76.6857727,28.2192053 62.5273977,14.0620096 45.0263977,14.0277705 L45.0263977,14.0277705 Z M45.0291477,75.6582053 L45.0291477,75.6568357 L45.0291477,75.6582053 L45.0291477,75.6582053 Z" id="mas" fill="#DC4437" transform="translate(45.027770, 45.527770) rotate(-315.000000) translate(-45.027770, -45.527770) "></path>
                <rect id="Rectangle-133" fill="#FFFFFF" x="43" y="27" width="5" height="37" rx="2.5"></rect>
                <path d="M29.4995812,48 C28.1191006,48 27,46.8903379 27,45.5 L27,45.5 C27,44.1192881 28.1275392,43 29.4995812,43 L61.5004188,43 C62.8808994,43 64,44.1096621 64,45.5 L64,45.5 C64,46.8807119 62.8724608,48 61.5004188,48 L29.4995812,48 L29.4995812,48 Z" id="Rectangle-133" fill="#FFFFFF"></path>
            </g>
        </g>
    </g>
</svg>