<?xml version="1.0" encoding="UTF-8" standalone="no"?>
<svg width="56px" height="43px" viewBox="0 0 56 43" version="1.1" xmlns="http://www.w3.org/2000/svg" xmlns:xlink="http://www.w3.org/1999/xlink">
    <!-- Generator: Sketch 3.8.3 (29802) - http://www.bohemiancoding.com/sketch -->
    <title>Page 1</title>
    <desc>Created with Sketch.</desc>
    <defs></defs>
    <g id="Symbols" stroke="none" stroke-width="1" fill="none" fill-rule="evenodd">
        <g id="boton-vehiculos-y-rutas" transform="translate(-36.000000, -38.000000)" fill="#FFFFFF">
            <g id="Page-1" transform="translate(36.000000, 38.000000)">
                <path d="M9.29685217,38.3293778 C8.47876522,38.3293778 7.81285217,37.6608222 7.81285217,36.8382667 C7.81285217,36.0218222 8.47876522,35.3581556 9.29685217,35.3581556 C10.1149391,35.3581556 10.7808522,36.0218222 10.7808522,36.8382667 C10.7808522,37.6608222 10.1149391,38.3293778 9.29685217,38.3293778 M9.29685217,33.8413778 C7.64728696,33.8413778 6.30572174,35.1870444 6.30572174,36.8382667 C6.30572174,38.4956 7.64728696,39.8412667 9.29685217,39.8412667 C10.9464174,39.8412667 12.2879826,38.4956 12.2879826,36.8382667 C12.2879826,35.1870444 10.9427652,33.8413778 9.29685217,33.8413778" id="Fill-1"></path>
                <g id="Group-7" transform="translate(0.000000, 8.333333)">
                    <path d="M40.7446261,30.2538111 C39.9265391,30.2538111 39.2606261,29.5852556 39.2606261,28.7639222 C39.2606261,27.9474778 39.9265391,27.2777 40.7446261,27.2777 C41.562713,27.2777 42.2286261,27.9474778 42.2286261,28.7639222 C42.2286261,29.5852556 41.562713,30.2538111 40.7446261,30.2538111 M40.7446261,25.7658111 C39.0950609,25.7658111 37.7534957,27.1065889 37.7534957,28.7639222 C37.7534957,30.4163667 39.0950609,31.7608111 40.7446261,31.7608111 C42.3941913,31.7608111 43.7357565,30.4163667 43.7357565,28.7639222 C43.7357565,27.1065889 42.3941913,25.7658111 40.7446261,25.7658111" id="Fill-3"></path>
                    <path d="M40.7446261,33.122 C38.3475826,33.122 36.4034087,31.1652222 36.4034087,28.7647778 C36.4034087,26.357 38.3475826,24.4002222 40.7446261,24.4002222 C43.1173217,24.4002222 45.0432348,26.3203333 45.0821913,28.6914444 L45.0821913,28.8356667 C45.0432348,31.2031111 43.1124522,33.122 40.7446261,33.122 M9.29697391,32.869 C7.09471304,32.869 5.29297391,31.2128889 5.00810435,29.0788889 L5.00810435,28.678 C5.00810435,26.2335556 6.98636522,24.2523333 9.42114783,24.2523333 C10.3098435,24.2523333 11.1376696,24.5187778 11.8315826,24.9771111 C12.9211478,25.7703333 13.6381913,27.0548889 13.6381913,28.5056667 C13.6381913,30.9122222 11.6891478,32.869 9.29697391,32.869 M13.6722783,8.47222222 L20.3728,8.47222222 L20.3728,16.0451111 L5.62532174,16.0451111 C8.02236522,12.7267778 11.7366261,8.47222222 13.6722783,8.47222222 M42.4806261,18.503 C34.8098435,18.503 28.5658435,12.2354444 28.5658435,4.52933333 C28.5658435,3.39266667 28.7180174,2.21811111 29.0223652,1.04844444 L29.2694957,0.0987777778 L20.994887,0.0987777778 L20.9900174,6.90166667 L13.9048,6.90166667 C10.5338435,6.90166667 7.52323478,10.7834444 4.86445217,14.2068889 C4.03784348,15.2763333 3.25262609,16.2895556 2.54410435,17.062 L2.46862609,17.1573333 C-1.19328696,22.7477778 0.285843478,28.6205556 0.346713043,28.8698889 L0.494017391,29.4321111 L3.52410435,29.4321111 C3.96601739,32.2346667 6.38132174,34.3833333 9.29697391,34.3833333 C12.2077565,34.3833333 14.6230609,32.2346667 15.0649739,29.4321111 L34.9340174,29.4321111 C35.2663652,32.3581111 37.7437565,34.6363333 40.7446261,34.6363333 C43.7454957,34.6363333 46.222887,32.3581111 46.5552348,29.4321111 L51.6439304,29.4321111 L51.6439304,23.0912222 L53.2995826,23.0912222 L53.2995826,13.4613333 L52.0249739,14.6701111 C49.4185391,17.1377778 46.0281043,18.503 42.4806261,18.503" id="Fill-5"></path>
                </g>
                <g id="Group-12" transform="translate(29.217391, 0.000000)">
                    <path d="M13.0869565,1.71991111 C19.1836522,1.71991111 24.1481739,6.69924444 24.1481739,12.8250222 C24.1481739,18.9446889 19.1787826,23.9252444 13.0869565,23.9252444 C6.9853913,23.9252444 2.02573913,18.9446889 2.02573913,12.8250222 C2.02573913,6.69924444 6.9853913,1.71991111 13.0869565,1.71991111 M13.0869565,25.6485778 C20.1295652,25.6485778 25.8598261,19.8955778 25.8598261,12.8250222 C25.8598261,5.75324444 20.1295652,0.000244444444 13.0869565,0.000244444444 C6.04434783,0.000244444444 0.314086957,5.75324444 0.314086957,12.8250222 C0.314086957,19.8955778 6.04434783,25.6485778 13.0869565,25.6485778" id="Fill-8"></path>
                    <path d="M12.3926783,14.5091222 C12.5825913,14.7010111 12.8345913,14.7963444 13.0865913,14.7963444 C13.3337217,14.7963444 13.5857217,14.7010111 13.7817217,14.5091222 L19.6824174,8.58501111 C20.0634609,8.19756667 20.0634609,7.57301111 19.6824174,7.19045556 C19.2977217,6.80423333 18.679287,6.80423333 18.2945913,7.19045556 L13.0865913,12.4191222 L7.8798087,7.19045556 C7.49511304,6.80423333 6.87667826,6.80423333 6.48589565,7.19045556 C6.1012,7.57301111 6.1012,8.19756667 6.48589565,8.58501111 L12.3926783,14.5091222 Z" id="Fill-10"></path>
                </g>
            </g>
        </g>
    </g>
</svg>