<?xml version="1.0" encoding="UTF-8" standalone="no"?>
<svg width="359px" height="480px" viewBox="0 0 359 480" version="1.1" xmlns="http://www.w3.org/2000/svg" xmlns:xlink="http://www.w3.org/1999/xlink">
    <!-- Generator: Sketch 3.8.3 (29802) - http://www.bohemiancoding.com/sketch -->
    <title>Page 1</title>
    <desc>Created with Sketch.</desc>
    <defs></defs>
    <g id="Flotas" stroke="none" stroke-width="1" fill="none" fill-rule="evenodd">
        <g id="Home-Copy" transform="translate(-196.000000, -334.000000)" fill="#EF8407">
            <g id="Page-1" transform="translate(196.000000, 334.000000)">
                <path d="M297.199563,445.420748 C291.927172,450.696393 285.724054,453.368201 278.579809,453.368201 C271.34717,453.368201 265.118054,450.696393 259.871662,445.420748 C254.672065,440.139875 252.015072,433.876027 252.015072,426.697177 C252.015072,419.418983 254.672065,413.181278 259.871662,407.900405 C265.118054,402.650903 271.34717,400.000009 278.579809,400.000009 C285.724054,400.000009 291.927172,402.650903 297.199563,407.900405 C302.445956,413.181278 305.056153,419.418983 305.056153,426.697177 C305.056153,433.876027 302.445956,440.139875 297.199563,445.420748 L297.199563,445.420748 Z M119.394169,319.986936 L39.7727517,319.986936 L39.7727517,313.728317 C39.7727517,311.919226 40.4227013,310.376792 41.6654048,309.121931 L82.0870661,268.474893 C83.3297696,267.220032 84.8636505,266.59783 86.6159145,266.59783 L119.394169,266.59783 L119.394169,319.986936 Z M111.485583,445.420748 C106.285987,450.696393 100.056871,453.368201 92.8190328,453.368201 C85.6799871,453.368201 79.4768688,450.696393 74.2304762,445.420748 C68.9112892,440.139875 66.3010919,433.876027 66.3010919,426.697177 C66.3010919,419.418983 68.9112892,413.181278 74.2304762,407.900405 C79.4768688,402.650903 85.6383904,400.000009 92.8190328,400.000009 C100.056871,400.000009 106.285987,402.650903 111.485583,407.900405 C116.757974,413.181278 119.394169,419.418983 119.394169,426.697177 C119.394169,433.876027 116.757974,440.139875 111.485583,445.420748 L111.485583,445.420748 Z M354.197537,190.558483 C351.540544,187.881446 348.446784,186.579528 344.833064,186.579528 L132.663539,186.579528 C129.04982,186.579528 125.95606,187.881446 123.340663,190.558483 C120.714867,193.183234 119.394169,196.315158 119.394169,199.93334 L119.394169,239.921577 L86.2831403,239.921577 C82.5186326,239.921577 78.4681471,240.841808 74.1316838,242.619528 C69.7224262,244.475676 66.2490959,246.671683 63.6129006,249.317348 L22.6192837,290.597046 C20.8462213,292.400909 19.2395461,294.471429 17.9500462,296.855665 C16.6293488,299.171929 15.6674235,301.31565 15.0434719,303.197942 C14.42472,305.095919 13.9463571,307.626555 13.7071757,310.90488 C13.4211979,314.157061 13.2808088,316.588354 13.1768168,318.08373 C13.1300205,319.626163 13.1300205,322.250914 13.1768168,326.031183 C13.2808088,329.769623 13.2808088,332.200916 13.2808088,333.314605 L13.2808088,400.000009 C9.70348654,400.000009 6.61492636,401.348985 3.90593671,403.947593 C1.34773535,406.577572 0.00103991925,409.735639 0.00103991925,413.32245 C0.00103991925,415.419114 0.287017714,417.254348 0.817376532,418.83861 C1.38933212,420.459472 2.37205581,421.709104 3.61995892,422.718222 C4.96145475,423.711653 6.08976714,424.480256 7.04129326,425.107686 C8.05001493,425.729888 9.65669018,426.122032 11.9081154,426.357319 C14.2323349,426.550776 15.7662158,426.697177 16.5773528,426.791291 C17.4196874,426.843577 19.1459534,426.843577 21.9017394,426.791291 C24.5379347,426.697177 26.1394103,426.697177 26.5189809,426.697177 L39.7727517,426.697177 C39.7727517,441.394736 44.998346,453.969489 55.3715405,464.379606 C65.7187371,474.810638 78.2081673,479.98694 92.8658292,479.98694 C107.487094,479.98694 120.044119,474.810638 130.391315,464.379606 C140.717714,453.969489 145.91731,441.394736 145.91731,426.697177 L225.486731,426.697177 C225.486731,441.394736 230.686328,453.969489 241.012726,464.379606 C251.38592,474.810638 263.922147,479.98694 278.579809,479.98694 C293.195874,479.98694 305.685304,474.810638 316.053299,464.379606 C326.405695,453.969489 331.63129,441.394736 331.63129,426.697177 C332.01086,426.697177 333.544741,426.697177 336.253731,426.791291 C338.96272,426.843577 340.688986,426.843577 341.54692,426.791291 C342.384055,426.697177 343.917936,426.550776 346.226556,426.357319 C348.49878,426.122032 350.105455,425.729888 351.108977,425.107686 C352.065703,424.480256 353.173217,423.711653 354.488715,422.718222 C355.783414,421.709104 356.74014,420.459472 357.265299,418.83861 C357.863253,417.254348 358.15443,415.419114 358.15443,413.32245 L358.15443,199.980397 C358.15443,196.315158 356.786936,193.183234 354.197537,190.558483 L354.197537,190.558483 Z" id="Fill-4"></path>
                <path d="M226.614004,88.8352689 C211.951142,88.8352689 200.080464,76.8879466 200.080464,62.1433301 C200.080464,47.4196279 211.951142,35.4670771 226.614004,35.4670771 C241.261267,35.4670771 253.147544,47.4196279 253.147544,62.1433301 C253.147544,76.8879466 241.261267,88.8352689 226.614004,88.8352689 M226.614004,0.00156857623 C193.95534,0.00156857623 167.463397,26.60985 167.463397,59.4662933 C167.463397,84.5164557 201.843127,142.240061 218.180259,168.252283 C220.005317,171.143692 223.203069,172.916183 226.614004,172.916183 C230.030139,172.916183 233.222691,171.143692 235.052949,168.236597 C251.400479,142.224375 285.764611,84.5164557 285.764611,59.4662933 C285.764611,26.60985 259.272668,0.00156857623 226.614004,0.00156857623" id="Fill-6"></path>
            </g>
        </g>
    </g>
</svg>