<?xml version="1.0" encoding="UTF-8" standalone="no"?>
<svg width="48px" height="48px" viewBox="0 0 48 48" version="1.1" xmlns="http://www.w3.org/2000/svg" xmlns:xlink="http://www.w3.org/1999/xlink" xmlns:sketch="http://www.bohemiancoding.com/sketch/ns">
    <!-- Generator: Sketch 3.3 (11970) - http://www.bohemiancoding.com/sketch -->
    <title>añadir filtro</title>
    <desc>Created with Sketch.</desc>
    <defs></defs>
    <g id="Filtrado" stroke="none" stroke-width="1" fill="none" fill-rule="evenodd" sketch:type="MSPage">
        <g id="Filtrado-1" sketch:type="MSArtboardGroup" transform="translate(-645.000000, -1238.000000)" fill="#FCFCFC">
            <g id="submenu-filtrado" sketch:type="MSLayerGroup" transform="translate(145.000000, 1177.000000)">
                <g id="añadir-filtro" transform="translate(500.000000, 61.000000)" sketch:type="MSShapeGroup">
                    <path d="M46,22 L26.023,22 L26.042,2.002 C26.044,0.898 25.149,0.001 24.044,0 L24.042,0 C22.939,0 22.043,0.895 22.042,1.998 L22.023,22 L2,22 C0.895,22 0,22.896 0,24 C0,25.105 0.895,26 2,26 L22.019,26 L22,45.998 C21.999,47.103 22.894,47.999 23.998,48 L23.999,48 C25.103,48 25.999,47.106 26,46.002 L26.019,26 L46,26 C47.104,26 48,25.105 48,24 C48,22.896 47.104,22 46,22" id="Imported-Layers"></path>
                </g>
            </g>
        </g>
    </g>
</svg>