<?xml version="1.0" encoding="UTF-8" standalone="no"?>
<svg width="26px" height="42px" viewBox="0 0 26 42" version="1.1" xmlns="http://www.w3.org/2000/svg" xmlns:xlink="http://www.w3.org/1999/xlink" xmlns:sketch="http://www.bohemiancoding.com/sketch/ns">
    <!-- Generator: Sketch 3.2.2 (9983) - http://www.bohemiancoding.com/sketch -->
    <title>flecha volver</title>
    <desc>Created with Sketch.</desc>
    <defs></defs>
    <g id="Login---home---listado-incidencias---Ajustes" stroke="none" stroke-width="1" fill="none" fill-rule="evenodd" sketch:type="MSPage">
        <g id="Incidencias" sketch:type="MSArtboardGroup" transform="translate(-35.000000, -34.000000)" fill="#1D4A7B">
            <g id="Pantalla-listado-incidencias" sketch:type="MSLayerGroup" transform="translate(0.000000, -3.000000)">
                <path d="M39.35232,58.0163765 L60.21888,40.5551226 C60.9425067,39.9502155 61.0372267,38.8734979 60.4322133,38.1517046 C59.8272,37.428205 58.7511467,37.3335016 58.0283733,37.9375556 L35.5976533,56.707593 C35.21024,57.0326559 34.9866667,57.5112919 34.9866667,58.0163765 C34.9866667,58.5214612 35.21024,59.0000971 35.5976533,59.32516 L58.0283733,78.0951975 C58.34752,78.3622439 58.73664,78.492781 59.1232,78.492781 C59.6104533,78.492781 60.0951467,78.2846042 60.4322133,77.8810484 C61.0372267,77.158402 60.9425067,76.0825376 60.21888,75.4776305 L39.35232,58.0163765" id="flecha-volver" sketch:type="MSShapeGroup"></path>
            </g>
        </g>
    </g>
</svg>