<?xml version="1.0" encoding="UTF-8" standalone="no"?>
<svg width="41px" height="48px" viewBox="0 0 41 48" version="1.1" xmlns="http://www.w3.org/2000/svg" xmlns:xlink="http://www.w3.org/1999/xlink" xmlns:sketch="http://www.bohemiancoding.com/sketch/ns">
    <!-- Generator: Sketch 3.3 (11970) - http://www.bohemiancoding.com/sketch -->
    <title>Imported Layers</title>
    <desc>Created with Sketch.</desc>
    <defs></defs>
    <g id="Filtrado" stroke="none" stroke-width="1" fill="none" fill-rule="evenodd" sketch:type="MSPage">
        <g id="Portrait-8" sketch:type="MSArtboardGroup" transform="translate(-183.000000, -260.000000)" fill="#1AAA53">
            <g id="contrato-1-copy" sketch:type="MSLayerGroup" transform="translate(153.000000, 232.000000)">
                <path d="M67.609,47.677 C68.994,45.836 70,43.117 70,41 L70,36 C70,30.804 59.695,28 50,28 C40.305,28 30,30.804 30,36 L30,41 C30,43.476 31.371,46.786 33.121,48.536 L46,61.414 L46,73 C46,74.654 47.346,76 49,76 L51,76 C52.654,76 54,74.654 54,73 L54,66.904 C55.562,67.624 57.263,68 59,68 C65.617,68 71,62.617 71,56 C71,52.886 69.77,49.909 67.609,47.677 L67.609,47.677 Z M50,42 C39.393,42 32,38.838 32,36 C32,33.162 39.393,30 50,30 C60.607,30 68,33.162 68,36 C68,38.838 60.607,42 50,42 L50,42 Z M59,66 C57.233,66 55.523,65.513 54,64.627 L54,61.414 L66.262,49.152 C68.009,51.003 69,53.448 69,56 C69,61.514 64.514,66 59,66 L59,66 Z" id="Imported-Layers" sketch:type="MSShapeGroup"></path>
            </g>
        </g>
    </g>
</svg>