<?xml version="1.0" encoding="UTF-8" standalone="no"?>
<svg width="50px" height="50px" viewBox="0 0 50 50" version="1.1" xmlns="http://www.w3.org/2000/svg" xmlns:xlink="http://www.w3.org/1999/xlink" xmlns:sketch="http://www.bohemiancoding.com/sketch/ns">
    <!-- Generator: Sketch 3.2.2 (9983) - http://www.bohemiancoding.com/sketch -->
    <title>Imported Layers</title>
    <desc>Created with Sketch.</desc>
    <defs></defs>
    <g id="Incidencia---editar-incidencia---resumen-incidencia" stroke="none" stroke-width="1" fill="none" fill-rule="evenodd" sketch:type="MSPage">
        <g id="Incidencia" sketch:type="MSArtboardGroup" transform="translate(-83.000000, -1878.000000)" fill="#FCFCFC">
            <g id="boton-gestionar-incidencias-2" sketch:type="MSLayerGroup" transform="translate(48.000000, 1839.000000)">
                <g id="Imported-Layers" transform="translate(38.000000, 41.000000)" sketch:type="MSShapeGroup">
                    <path d="M34,21.025 L34,11 C34,10.734 33.894,10.48 33.707,10.293 L23.707,0.293 C23.519,0.106 23.265,0 23,0 L1,0 C0.448,0 0,0.447 0,1 L0,43 C0,43.553 0.448,44 1,44 L24.913,44 C22.495,41.561 21,38.205 21,34.5 C21,27.213 26.778,21.291 34,21.025 L34,21.025 Z M23,1 L33,11 L23,11 L23,1 L23,1 Z" id="Fill-1"></path>
                    <path d="M34.5,27.282 C36.668,27.282 38.653,28.241 40.004,29.848 L37.239,29.848 C36.687,29.848 36.239,30.295 36.239,30.848 C36.239,31.4 36.687,31.848 37.239,31.848 L42.804,31.848 L42.804,26.282 C42.804,25.73 42.356,25.282 41.804,25.282 C41.252,25.282 40.804,25.73 40.804,26.282 L40.804,27.795 C39.127,26.212 36.904,25.282 34.5,25.282 C29.417,25.282 25.283,29.417 25.283,34.5 L27.283,34.5 C27.283,30.52 30.52,27.282 34.5,27.282" id="Fill-2"></path>
                    <path d="M41.717,34.5 C41.717,38.48 38.479,41.718 34.5,41.718 C32.331,41.718 30.347,40.759 28.995,39.152 L30.848,39.152 C31.4,39.152 31.848,38.705 31.848,38.152 C31.848,37.6 31.4,37.152 30.848,37.152 L26.196,37.152 L26.196,41.805 C26.196,42.357 26.644,42.805 27.196,42.805 C27.748,42.805 28.196,42.357 28.196,41.805 L28.196,41.206 C29.873,42.788 32.095,43.718 34.5,43.718 C39.582,43.718 43.717,39.583 43.717,34.5 L41.717,34.5" id="Fill-3"></path>
                </g>
            </g>
        </g>
    </g>
</svg>