<?xml version="1.0" encoding="UTF-8" standalone="no"?>
<svg width="54px" height="54px" viewBox="0 0 54 54" version="1.1" xmlns="http://www.w3.org/2000/svg" xmlns:xlink="http://www.w3.org/1999/xlink" xmlns:sketch="http://www.bohemiancoding.com/sketch/ns">
    <!-- Generator: Sketch 3.3.2 (12043) - http://www.bohemiancoding.com/sketch -->
    <title>bandera copy</title>
    <desc>Created with Sketch.</desc>
    <defs>
        <circle id="path-1" cx="27" cy="27" r="25"></circle>
    </defs>
    <g id="Login---home---listado-incidencias---Ajustes" stroke="none" stroke-width="1" fill="none" fill-rule="evenodd" sketch:type="MSPage">
        <g id="Notificaciones" sketch:type="MSArtboardGroup" transform="translate(-241.000000, -1170.000000)">
            <g id="Pantalla-listado-incidencias" sketch:type="MSLayerGroup" transform="translate(0.000000, -3.000000)">
                <g id="idioma-abierto" transform="translate(0.000000, 721.000000)">
                    <g id="idiomas" transform="translate(241.000000, 81.000000)">
                        <g id="frances" transform="translate(0.000000, 371.000000)">
                            <g id="bandera-copy">
                                <circle id="circulo" fill="#FCFCFC" sketch:type="MSShapeGroup" cx="27" cy="27" r="27"></circle>
                                <mask id="mask-2" sketch:name="Mask" fill="white">
                                    <use xlink:href="#path-1"></use>
                                </mask>
                                <g id="Mask">
                                    <use sketch:type="MSShapeGroup" xlink:href="#path-1"></use>
                                    <use xlink:href="#path-1"></use>
                                </g>
                                <rect id="Rectangle-519" fill="#DF1D44" sketch:type="MSShapeGroup" mask="url(#mask-2)" x="35" y="-5" width="17" height="70"></rect>
                                <rect id="Rectangle-521" fill="#1E2452" sketch:type="MSShapeGroup" mask="url(#mask-2)" x="2" y="-5" width="17" height="61"></rect>
                                <rect id="Rectangle-520" fill="#FFFFFF" sketch:type="MSShapeGroup" mask="url(#mask-2)" x="19" y="0" width="16" height="55"></rect>
                            </g>
                        </g>
                    </g>
                </g>
            </g>
        </g>
    </g>
</svg>