<?xml version="1.0" encoding="UTF-8" standalone="no"?>
<svg width="54px" height="54px" viewBox="0 0 54 54" version="1.1" xmlns="http://www.w3.org/2000/svg" xmlns:xlink="http://www.w3.org/1999/xlink" xmlns:sketch="http://www.bohemiancoding.com/sketch/ns">
    <!-- Generator: Sketch 3.2.2 (9983) - http://www.bohemiancoding.com/sketch -->
    <title>Imported EPS</title>
    <desc>Created with Sketch.</desc>
    <defs></defs>
    <g id="Nueva-incidencia" stroke="none" stroke-width="1" fill="none" fill-rule="evenodd" sketch:type="MSPage">
        <g id="editar-incidencia-3" sketch:type="MSArtboardGroup" transform="translate(-77.000000, -563.000000)" fill="#FCFCFC">
            <g id="boton-gestionar-incidencias" sketch:type="MSLayerGroup" transform="translate(46.000000, 525.000000)">
                <g id="Imported-EPS" transform="translate(34.000000, 39.000000)" sketch:type="MSShapeGroup">
                    <g id="Page-1">
                        <path d="M0.542,1.111 C0.209,1.283 0,1.626 0,2 L0,34 C0,34.323 0.156,34.625 0.419,34.814 L14,44.515 L14,10.057 L1.581,1.186 C1.275,0.969 0.876,0.938 0.542,1.111" id="Fill-1"></path>
                        <path d="M39,23 C40.791,23 42.48,23.44 43.976,24.202 C43.989,24.136 44,24.069 44,24 L44,12 C44,11.677 43.844,11.373 43.581,11.186 L30,1.486 L30,27.695 C31.992,24.861 35.28,23 39,23" id="Fill-2"></path>
                        <path d="M16,44.515 L28,35.942 L28,1.486 L16,10.057 L16,44.515" id="Fill-3"></path>
                        <path d="M39,25 C34.037,25 30,29.037 30,34 C30,34.155 30.02,34.322 30.035,34.489 L30.044,34.483 C30.055,34.594 30.057,34.701 30.074,34.816 C30.092,34.932 30.118,35.053 30.144,35.175 C30.177,35.338 30.216,35.503 30.261,35.672 C30.305,35.834 30.35,35.997 30.403,36.165 C30.441,36.286 30.486,36.41 30.53,36.533 C30.77,37.21 31.082,37.93 31.454,38.679 C31.521,38.812 31.584,38.945 31.654,39.08 C31.737,39.24 31.826,39.403 31.914,39.565 C32.048,39.81 32.182,40.055 32.323,40.3 C32.361,40.368 32.4,40.435 32.439,40.503 C34.342,43.756 36.809,46.893 37.827,48.148 C37.963,48.312 38.099,48.48 38.232,48.641 C38.422,48.869 38.703,49 39,49 C39.297,49 39.578,48.868 39.768,48.641 C39.896,48.487 40.026,48.325 40.156,48.166 C41.166,46.927 43.648,43.772 45.561,40.502 C45.6,40.435 45.639,40.368 45.677,40.301 C45.818,40.055 45.952,39.81 46.086,39.565 C46.173,39.403 46.263,39.24 46.346,39.08 C46.416,38.945 46.479,38.812 46.546,38.679 C46.918,37.93 47.231,37.21 47.47,36.533 C47.514,36.41 47.559,36.286 47.597,36.165 C47.65,35.997 47.695,35.834 47.739,35.672 C47.784,35.503 47.823,35.338 47.856,35.175 C47.882,35.053 47.908,34.932 47.926,34.816 C47.969,34.533 48,34.258 48,34 C48,29.037 43.963,25 39,25 L39,25 Z M39,38 C36.794,38 35,36.205 35,34 C35,31.794 36.794,30 39,30 C41.206,30 43,31.794 43,34 C43,36.205 41.206,38 39,38 L39,38 Z" id="Fill-4"></path>
                    </g>
                </g>
            </g>
        </g>
    </g>
</svg>