<?xml version="1.0" encoding="UTF-8" standalone="no"?>
<svg width="59px" height="44px" viewBox="0 0 59 44" version="1.1" xmlns="http://www.w3.org/2000/svg" xmlns:xlink="http://www.w3.org/1999/xlink" xmlns:sketch="http://www.bohemiancoding.com/sketch/ns">
    <!-- Generator: Sketch 3.3.3 (12081) - http://www.bohemiancoding.com/sketch -->
    <title>Imported Layers</title>
    <desc>Created with Sketch.</desc>
    <defs></defs>
    <g id="Incidencia---editar-incidencia---resumen-incidencia" stroke="none" stroke-width="1" fill="none" fill-rule="evenodd" sketch:type="MSPage">
        <g id="editar-incidencia-2" sketch:type="MSArtboardGroup" transform="translate(-79.000000, -1009.000000)" fill="#FCFCFC">
            <g id="boton-gestionar-incidencias-3-copy" sketch:type="MSLayerGroup" transform="translate(46.000000, 966.000000)">
                <g id="Imported-Layers" transform="translate(36.000000, 45.000000)" sketch:type="MSShapeGroup">
                    <path d="M44.630129,0.982608696 C43.9507742,0.304347826 42.8463871,0.304347826 42.1670323,0.982608696 C41.4859355,1.6626087 41.4859355,2.76347826 42.1670323,3.44173913 C46.4434839,7.71304348 48.8003226,13.3895652 48.8003226,19.4295652 C48.8003226,25.4695652 46.4434839,31.146087 42.1670323,35.4173913 C41.4859355,36.0956522 41.4859355,37.1982609 42.1670323,37.8765217 C42.5067097,38.2156522 42.9526452,38.386087 43.3985806,38.386087 C43.8445161,38.386087 44.2904516,38.2156522 44.630129,37.8765217 C49.5650323,32.9495652 52.2841935,26.3982609 52.2841935,19.4295652 C52.2841935,12.4608696 49.5650323,5.90956522 44.630129,0.982608696" id="Fill-1"></path>
                    <path d="M38.6326452,6.97217391 C37.9532903,6.29217391 36.8489032,6.29217391 36.1695484,6.97217391 C35.4884516,7.65043478 35.4884516,8.75130435 36.1695484,9.43130435 C38.8434194,12.1008696 40.3170968,15.6521739 40.3170968,19.4295652 C40.3170968,23.2069565 38.8434194,26.7565217 36.1678065,29.4278261 C35.4884516,30.1078261 35.4884516,31.2086957 36.1695484,31.8886957 C36.5092258,32.2278261 36.9551613,32.3965217 37.4010968,32.3965217 C37.8470323,32.3965217 38.2929677,32.2278261 38.6326452,31.8869565 C41.9649677,28.56 43.8009677,24.1356522 43.8009677,19.4295652 C43.8009677,14.7234783 41.9649677,10.2991304 38.6326452,6.97217391" id="Fill-2"></path>
                    <path d="M30.1703226,12.96 C29.4892258,13.64 29.4892258,14.7408696 30.1703226,15.4191304 C31.2433548,16.4904348 31.8356129,17.9147826 31.8356129,19.4295652 C31.8356129,20.9443478 31.2433548,22.3686957 30.1703226,23.44 C29.4892258,24.1182609 29.4892258,25.2208696 30.1703226,25.8991304 C30.51,26.2382609 30.9559355,26.4086957 31.401871,26.4086957 C31.8478065,26.4086957 32.2937419,26.2382609 32.6334194,25.8991304 C34.3649032,24.1704348 35.3194839,21.8730435 35.3194839,19.4295652 C35.3194839,16.986087 34.3649032,14.6886957 32.6334194,12.96 C31.9523226,12.2817391 30.8496774,12.28 30.1703226,12.96" id="Fill-3"></path>
                    <path d="M3.50825806,19.4295652 C3.50825806,13.3913043 5.86509677,7.71304348 10.1415484,3.44173913 C10.8226452,2.76347826 10.8226452,1.6626087 10.1415484,0.982608696 C9.46219355,0.304347826 8.35780645,0.304347826 7.67845161,0.982608696 C2.74354839,5.91130435 0.0261290323,12.4626087 0.0261290323,19.4295652 C0.0261290323,26.3982609 2.74354839,32.9495652 7.67845161,37.8765217 C8.01812903,38.2156522 8.46406452,38.386087 8.91,38.386087 C9.35593548,38.386087 9.80187097,38.2156522 10.1415484,37.8765217 C10.8226452,37.1982609 10.8226452,36.0973913 10.1415484,35.4173913 C5.86509677,31.146087 3.50825806,25.4695652 3.50825806,19.4295652" id="Fill-4"></path>
                    <path d="M11.9914839,19.4295652 C11.9914839,15.6521739 13.4651613,12.1008696 16.1390323,9.43130435 C16.820129,8.75130435 16.820129,7.65043478 16.1390323,6.97217391 C15.4596774,6.29217391 14.3552903,6.29217391 13.6759355,6.97217391 C10.3436129,10.2991304 8.5076129,14.7234783 8.5076129,19.4295652 C8.5076129,24.1356522 10.3436129,28.56 13.6759355,31.8869565 C14.0156129,32.2278261 14.4615484,32.3965217 14.9074839,32.3965217 C15.3534194,32.3965217 15.7993548,32.2278261 16.1390323,31.8886957 C16.820129,31.2086957 16.820129,30.1078261 16.1407742,29.4278261 C13.4651613,26.7565217 11.9914839,23.2069565 11.9914839,19.4295652" id="Fill-5"></path>
                    <path d="M22.1382581,12.96 C21.4589032,12.2817391 20.3562581,12.28 19.6751613,12.96 C17.9436774,14.6886957 16.9908387,16.986087 16.9908387,19.4295652 C16.9908387,21.8730435 17.9436774,24.1704348 19.6751613,25.8991304 C20.0148387,26.2382609 20.4607742,26.4086957 20.9067097,26.4086957 C21.3526452,26.4086957 21.7985806,26.2382609 22.1382581,25.8991304 C22.8193548,25.2208696 22.8193548,24.1182609 22.1382581,23.44 C21.0652258,22.3686957 20.4747097,20.9443478 20.4747097,19.4295652 C20.4747097,17.9147826 21.0652258,16.4904348 22.1382581,15.4191304 C22.8193548,14.7408696 22.8193548,13.64 22.1382581,12.96" id="Fill-6"></path>
                    <path d="M26.1551613,16.8017391 C24.7023871,16.8017391 23.5230968,17.9808696 23.5230968,19.4295652 C23.5230968,20.8782609 24.7023871,22.0573913 26.1551613,22.0573913 C27.6061935,22.0573913 28.7854839,20.8782609 28.7854839,19.4295652 C28.7854839,17.9808696 27.6061935,16.8017391 26.1551613,16.8017391" id="Fill-7"></path>
                </g>
            </g>
        </g>
    </g>
</svg>