<?xml version="1.0" encoding="UTF-8" standalone="no"?>
<svg width="40px" height="40px" viewBox="0 0 40 40" version="1.1" xmlns="http://www.w3.org/2000/svg" xmlns:xlink="http://www.w3.org/1999/xlink" xmlns:sketch="http://www.bohemiancoding.com/sketch/ns">
    <!-- Generator: Sketch 3.3 (11970) - http://www.bohemiancoding.com/sketch -->
    <title>Imported Layers</title>
    <desc>Created with Sketch.</desc>
    <defs></defs>
    <g id="Filtrado" stroke="none" stroke-width="1" fill="none" fill-rule="evenodd" sketch:type="MSPage">
        <g id="Portrait-8" sketch:type="MSArtboardGroup" transform="translate(-342.000000, -1247.000000)" fill="#FCFCFC">
            <g id="submenu-filtrado" sketch:type="MSLayerGroup" transform="translate(145.000000, 1182.000000)">
                <path d="M236.219079,104.296519 C235.811679,104.706019 235.274079,104.909719 234.738579,104.909719 C234.198879,104.909719 233.661279,104.703919 233.249679,104.292319 L216.947379,87.9249188 L200.582079,104.227219 C200.172579,104.636719 199.637079,104.840419 199.101579,104.840419 C198.561879,104.840419 198.022179,104.634619 197.612679,104.223019 C196.793679,103.399819 196.795779,102.070519 197.618979,101.253619 L213.984279,84.9513188 L197.679879,68.5839188 C196.862979,67.7628188 196.865079,66.4335188 197.686179,65.6145188 C198.505179,64.7913188 199.836579,64.7976188 200.655579,65.6187188 L216.959979,81.9861188 L233.325279,65.6838188 C234.146379,64.8648188 235.475679,64.8648188 236.294679,65.6880188 C237.113679,66.5112188 237.111579,67.8405188 236.288379,68.6574188 L219.923079,84.9618188 L236.225379,101.327119 C237.044379,102.150319 237.042279,103.477519 236.219079,104.296519 Z" id="Imported-Layers" sketch:type="MSShapeGroup"></path>
            </g>
        </g>
    </g>
</svg>