<?xml version="1.0" encoding="UTF-8" standalone="no"?>
<svg width="38px" height="48px" viewBox="0 0 38 48" version="1.1" xmlns="http://www.w3.org/2000/svg" xmlns:xlink="http://www.w3.org/1999/xlink" xmlns:sketch="http://www.bohemiancoding.com/sketch/ns">
    <!-- Generator: Sketch 3.2.2 (9983) - http://www.bohemiancoding.com/sketch -->
    <title>Imported Layers</title>
    <desc>Created with Sketch.</desc>
    <defs></defs>
    <g id="Login---home---listado-incidencias---Ajustes" stroke="none" stroke-width="1" fill="none" fill-rule="evenodd" sketch:type="MSPage">
        <g id="Contratos" sketch:type="MSArtboardGroup" transform="translate(-30.000000, -156.000000)" fill="#1AAA53">
            <g id="Pantalla-Home" sketch:type="MSLayerGroup">
                <g id="contrato-1" transform="translate(0.000000, 130.000000)" sketch:type="MSShapeGroup">
                    <g id="Imported-Layers" transform="translate(30.000000, 26.000000)">
                        <path d="M29,10 L30,10 L30,4 L23.899,4 C23.847,3.741 23.768,3.491 23.677,3.248 C23.638,3.146 23.589,3.051 23.545,2.952 C23.476,2.801 23.407,2.65 23.324,2.508 C23.269,2.413 23.208,2.325 23.148,2.235 C23.058,2.1 22.964,1.968 22.861,1.842 C22.792,1.757 22.717,1.676 22.642,1.596 C22.535,1.481 22.423,1.371 22.307,1.267 C22.219,1.191 22.13,1.117 22.038,1.046 C21.92,0.955 21.796,0.871 21.67,0.791 C21.568,0.725 21.465,0.661 21.358,0.604 C21.227,0.533 21.092,0.473 20.955,0.415 C20.844,0.367 20.734,0.316 20.619,0.277 C20.463,0.224 20.3,0.185 20.138,0.147 C20.035,0.123 19.935,0.092 19.831,0.074 C19.56,0.028 19.284,0 19,0 C18.716,0 18.44,0.028 18.169,0.074 C18.065,0.092 17.965,0.123 17.862,0.147 C17.7,0.185 17.537,0.224 17.381,0.277 C17.266,0.316 17.156,0.367 17.045,0.415 C16.908,0.473 16.772,0.533 16.642,0.604 C16.535,0.661 16.432,0.725 16.33,0.791 C16.203,0.871 16.08,0.955 15.962,1.046 C15.87,1.117 15.781,1.191 15.693,1.267 C15.577,1.371 15.465,1.481 15.358,1.596 C15.283,1.676 15.208,1.757 15.138,1.842 C15.036,1.968 14.942,2.1 14.852,2.235 C14.792,2.325 14.73,2.413 14.676,2.508 C14.593,2.65 14.523,2.801 14.455,2.952 C14.411,3.051 14.362,3.146 14.323,3.248 C14.232,3.491 14.153,3.741 14.101,4 L8,4 L8,10 L29,10" id="Fill-1"></path>
                        <path d="M37,4 L32,4 L32,42 L6,42 L6,4 L1,4 C0.448,4 0,4.447 0,5 L0,47 C0,47.553 0.448,48 1,48 L37,48 C37.552,48 38,47.553 38,47 L38,5 C38,4.447 37.552,4 37,4" id="Fill-2"></path>
                        <path d="M27,16 L15,16 C14.448,16 14,16.447 14,17 C14,17.553 14.448,18 15,18 L27,18 C27.552,18 28,17.553 28,17 C28,16.447 27.552,16 27,16" id="Fill-3"></path>
                        <path d="M27,22 L15,22 C14.448,22 14,22.447 14,23 C14,23.553 14.448,24 15,24 L27,24 C27.552,24 28,23.553 28,23 C28,22.447 27.552,22 27,22" id="Fill-4"></path>
                        <path d="M27,28 L15,28 C14.448,28 14,28.447 14,29 C14,29.553 14.448,30 15,30 L27,30 C27.552,30 28,29.553 28,29 C28,28.447 27.552,28 27,28" id="Fill-5"></path>
                        <path d="M27,34 L15,34 C14.448,34 14,34.447 14,35 C14,35.553 14.448,36 15,36 L27,36 C27.552,36 28,35.553 28,35 C28,34.447 27.552,34 27,34" id="Fill-6"></path>
                        <path d="M11,16 L10,16 C9.448,16 9,16.447 9,17 C9,17.553 9.448,18 10,18 L11,18 C11.552,18 12,17.553 12,17 C12,16.447 11.552,16 11,16" id="Fill-7"></path>
                        <path d="M11,22 L10,22 C9.448,22 9,22.447 9,23 C9,23.553 9.448,24 10,24 L11,24 C11.552,24 12,23.553 12,23 C12,22.447 11.552,22 11,22" id="Fill-8"></path>
                        <path d="M11,28 L10,28 C9.448,28 9,28.447 9,29 C9,29.553 9.448,30 10,30 L11,30 C11.552,30 12,29.553 12,29 C12,28.447 11.552,28 11,28" id="Fill-9"></path>
                        <path d="M11,34 L10,34 C9.448,34 9,34.447 9,35 C9,35.553 9.448,36 10,36 L11,36 C11.552,36 12,35.553 12,35 C12,34.447 11.552,34 11,34" id="Fill-10"></path>
                    </g>
                </g>
            </g>
        </g>
    </g>
</svg>