<?xml version="1.0" encoding="UTF-8" standalone="no"?>
<svg width="47px" height="54px" viewBox="0 0 47 54" version="1.1" xmlns="http://www.w3.org/2000/svg" xmlns:xlink="http://www.w3.org/1999/xlink" xmlns:sketch="http://www.bohemiancoding.com/sketch/ns">
    <!-- Generator: Sketch 3.2.2 (9983) - http://www.bohemiancoding.com/sketch -->
    <title>Imported Layers</title>
    <desc>Created with Sketch.</desc>
    <defs></defs>
    <g id="Nueva-incidencia" stroke="none" stroke-width="1" fill="none" fill-rule="evenodd" sketch:type="MSPage">
        <g id="editar-incidencia-3" sketch:type="MSArtboardGroup" transform="translate(-82.000000, -913.000000)" fill="#FCFCFC">
            <g id="boton-gestionar-incidencias-3" sketch:type="MSLayerGroup" transform="translate(46.000000, 879.000000)">
                <g id="Imported-Layers" transform="translate(39.000000, 36.000000)" sketch:type="MSShapeGroup">
                    <path d="M18,35 C27.374,35 35,27.373 35,18 C35,8.625 27.374,1 18,1 C8.626,1 1,8.625 1,18 C1,27.373 8.626,35 18,35" id="Fill-1"></path>
                    <path d="M34.264,34.264 C42.993,25.535 43.199,11.492 34.935,2.48 L35.678,1.736 C36.068,1.345 36.068,0.712 35.678,0.322 C35.287,-0.068 34.654,-0.068 34.264,0.322 L32.851,1.736 L32.85,1.737 L31.436,3.15 C31.045,3.542 31.045,4.175 31.436,4.566 C31.631,4.761 31.887,4.858 32.143,4.858 C32.398,4.858 32.654,4.761 32.85,4.565 L33.521,3.893 C41.006,12.126 40.799,24.9 32.85,32.85 C24.9,40.799 12.124,41.006 3.894,33.52 L4.564,32.849 C4.955,32.458 4.955,31.825 4.564,31.434 C4.174,31.045 3.541,31.044 3.15,31.435 L1.738,32.848 C1.737,32.849 1.736,32.849 1.736,32.849 L1.735,32.85 L0.322,34.264 C-0.068,34.655 -0.068,35.288 0.322,35.679 C0.517,35.873 0.773,35.971 1.029,35.971 C1.285,35.971 1.541,35.873 1.736,35.678 L2.479,34.935 C6.338,38.473 11.106,40.471 16,40.893 L16,42.104 C12.182,42.467 8.561,43.858 5.436,46.2 C5.092,46.457 4.951,46.907 5.087,47.316 C5.224,47.725 5.605,48 6.036,48 L29.963,48 C30.394,48 30.775,47.725 30.912,47.316 C31.048,46.907 30.907,46.457 30.562,46.2 C27.437,43.858 23.817,42.467 20,42.104 L20,40.893 C25.206,40.443 30.288,38.239 34.264,34.264" id="Fill-2"></path>
                </g>
            </g>
        </g>
    </g>
</svg>