<?xml version="1.0" encoding="UTF-8" standalone="no"?>
<svg width="45px" height="45px" viewBox="0 0 45 45" version="1.1" xmlns="http://www.w3.org/2000/svg" xmlns:xlink="http://www.w3.org/1999/xlink" xmlns:sketch="http://www.bohemiancoding.com/sketch/ns">
    <!-- Generator: Sketch 3.3.1 (12005) - http://www.bohemiancoding.com/sketch -->
    <title>Imported Layers</title>
    <desc>Created with Sketch.</desc>
    <defs></defs>
    <g id="Login-ciudadano---home-ciudadano" stroke="none" stroke-width="1" fill="none" fill-rule="evenodd" sketch:type="MSPage">
        <g id="-login-ciudadano" sketch:type="MSArtboardGroup" transform="translate(-77.000000, -998.000000)" fill="#1D4A7B">
            <g id="Pantalla-Login/Registro" sketch:type="MSLayerGroup">
                <g id="text-fild-4" transform="translate(48.000000, 957.000000)" sketch:type="MSShapeGroup">
                    <path d="M72.4895725,73.883 L67.5825725,68.976 C66.6145725,68.009 65.3275725,67.476 63.9585725,67.476 C62.5895725,67.476 61.3015725,68.008 60.3325725,68.976 L59.0185725,70.29 C53.8795725,66.04 48.9435725,61.102 44.7005725,55.971 L46.0145725,54.657 C48.0135725,52.658 48.0135725,49.407 46.0145725,47.408 L41.1075725,42.502 C40.1395725,41.533 38.8525725,41 37.4835725,41 C36.1145725,41 34.8265725,41.533 33.8575725,42.502 L31.1675725,45.193 C28.6815725,47.679 28.2865725,51.615 30.2285725,54.553 C38.0955725,66.447 48.5425725,76.893 60.4375725,84.762 C61.6605725,85.569 63.0795725,85.997 64.5435725,85.997 C66.5305725,85.997 68.3965725,85.225 69.7975725,83.823 L72.4895725,81.131 C73.4575725,80.163 73.9905725,78.876 73.9905725,77.507 C73.9905725,76.139 73.4575725,74.85 72.4895725,73.883" id="Imported-Layers"></path>
                </g>
            </g>
        </g>
    </g>
</svg>